{
 "align_labels_right": 0, 
 "creation": "2019-09-20 17:38:07.544518", 
 "custom_format": 1, 
 "default_print_language": "de", 
 "disabled": 0, 
 "doc_type": "Stock Entry", 
 "docstatus": 0, 
 "doctype": "Print Format", 
 "font": "Default", 
 "idx": 0, 
 "line_breaks": 0, 
 "modified": "2019-09-20 17:38:07.544518", 
 "modified_by": "Administrator", 
 "module": "Stephan", 
 "name": "Lagerbuchung-Amazon-Bendorf", 
 "owner": "Administrator", 
 "print_format_builder": 1, 
 "print_format_type": "Server", 
 "show_section_headings": 0, 
 "standard": "Yes"
}