[
 {
  "_assign": null, 
  "_comments": null, 
  "_liked_by": null, 
  "_user_tags": null, 
  "default_value": null, 
  "doc_type": "Purchase Order", 
  "docstatus": 0, 
  "doctype": "Property Setter", 
  "doctype_or_field": "DocField", 
  "field_name": "base_rounded_total", 
  "modified": "2018-10-03 00:08:43.637627", 
  "name": "Purchase Order-base_rounded_total-hidden", 
  "parent": null, 
  "parentfield": null, 
  "parenttype": null, 
  "property": "hidden", 
  "property_type": "Check", 
  "value": "0"
 }, 
 {
  "_assign": null, 
  "_comments": null, 
  "_liked_by": null, 
  "_user_tags": null, 
  "default_value": null, 
  "doc_type": "Purchase Order", 
  "docstatus": 0, 
  "doctype": "Property Setter", 
  "doctype_or_field": "DocField", 
  "field_name": "base_rounded_total", 
  "modified": "2018-10-03 00:08:43.749728", 
  "name": "Purchase Order-base_rounded_total-print_hide", 
  "parent": null, 
  "parentfield": null, 
  "parenttype": null, 
  "property": "print_hide", 
  "property_type": "Check", 
  "value": "1"
 }, 
 {
  "_assign": null, 
  "_comments": null, 
  "_liked_by": null, 
  "_user_tags": null, 
  "default_value": null, 
  "doc_type": "Purchase Order", 
  "docstatus": 0, 
  "doctype": "Property Setter", 
  "doctype_or_field": "DocField", 
  "field_name": "rounded_total", 
  "modified": "2018-10-03 00:08:43.862518", 
  "name": "Purchase Order-rounded_total-hidden", 
  "parent": null, 
  "parentfield": null, 
  "parenttype": null, 
  "property": "hidden", 
  "property_type": "Check", 
  "value": "0"
 }, 
 {
  "_assign": null, 
  "_comments": null, 
  "_liked_by": null, 
  "_user_tags": null, 
  "default_value": null, 
  "doc_type": "Purchase Order", 
  "docstatus": 0, 
  "doctype": "Property Setter", 
  "doctype_or_field": "DocField", 
  "field_name": "in_words", 
  "modified": "2018-10-03 00:08:45.140428", 
  "name": "Purchase Order-in_words-hidden", 
  "parent": null, 
  "parentfield": null, 
  "parenttype": null, 
  "property": "hidden", 
  "property_type": "Check", 
  "value": "0"
 }, 
 {
  "_assign": null, 
  "_comments": null, 
  "_liked_by": null, 
  "_user_tags": null, 
  "default_value": null, 
  "doc_type": "Purchase Order", 
  "docstatus": 0, 
  "doctype": "Property Setter", 
  "doctype_or_field": "DocField", 
  "field_name": "due_date", 
  "modified": "2018-10-03 03:36:14.978921", 
  "name": "Purchase Order-due_date-print_hide", 
  "parent": null, 
  "parentfield": null, 
  "parenttype": null, 
  "property": "print_hide", 
  "property_type": "Check", 
  "value": "0"
 }, 
 {
  "_assign": null, 
  "_comments": null, 
  "_liked_by": null, 
  "_user_tags": null, 
  "default_value": null, 
  "doc_type": "Purchase Order", 
  "docstatus": 0, 
  "doctype": "Property Setter", 
  "doctype_or_field": "DocField", 
  "field_name": "payment_schedule", 
  "modified": "2018-10-03 03:36:15.100338", 
  "name": "Purchase Order-payment_schedule-print_hide", 
  "parent": null, 
  "parentfield": null, 
  "parenttype": null, 
  "property": "print_hide", 
  "property_type": "Check", 
  "value": "1"
 }, 
 {
  "_assign": null, 
  "_comments": null, 
  "_liked_by": null, 
  "_user_tags": null, 
  "default_value": null, 
  "doc_type": "Item", 
  "docstatus": 0, 
  "doctype": "Property Setter", 
  "doctype_or_field": "DocField", 
  "field_name": "naming_series", 
  "modified": "2018-10-14 01:49:20.537955", 
  "name": "Item-naming_series-reqd", 
  "parent": null, 
  "parentfield": null, 
  "parenttype": null, 
  "property": "reqd", 
  "property_type": "Check", 
  "value": "0"
 }, 
 {
  "_assign": null, 
  "_comments": null, 
  "_liked_by": null, 
  "_user_tags": null, 
  "default_value": null, 
  "doc_type": "Item", 
  "docstatus": 0, 
  "doctype": "Property Setter", 
  "doctype_or_field": "DocField", 
  "field_name": "naming_series", 
  "modified": "2018-10-14 01:49:20.662891", 
  "name": "Item-naming_series-hidden", 
  "parent": null, 
  "parentfield": null, 
  "parenttype": null, 
  "property": "hidden", 
  "property_type": "Check", 
  "value": "1"
 }, 
 {
  "_assign": null, 
  "_comments": null, 
  "_liked_by": null, 
  "_user_tags": null, 
  "default_value": null, 
  "doc_type": "Item", 
  "docstatus": 0, 
  "doctype": "Property Setter", 
  "doctype_or_field": "DocField", 
  "field_name": "item_code", 
  "modified": "2018-10-14 01:49:20.781589", 
  "name": "Item-item_code-hidden", 
  "parent": null, 
  "parentfield": null, 
  "parenttype": null, 
  "property": "hidden", 
  "property_type": "Check", 
  "value": "0"
 }, 
 {
  "_assign": null, 
  "_comments": null, 
  "_liked_by": null, 
  "_user_tags": null, 
  "default_value": null, 
  "doc_type": "Item", 
  "docstatus": 0, 
  "doctype": "Property Setter", 
  "doctype_or_field": "DocField", 
  "field_name": "item_code", 
  "modified": "2018-10-14 01:49:20.901076", 
  "name": "Item-item_code-reqd", 
  "parent": null, 
  "parentfield": null, 
  "parenttype": null, 
  "property": "reqd", 
  "property_type": "Check", 
  "value": "1"
 }, 
 {
  "_assign": null, 
  "_comments": null, 
  "_liked_by": null, 
  "_user_tags": null, 
  "default_value": null, 
  "doc_type": "Stock Entry Detail", 
  "docstatus": 0, 
  "doctype": "Property Setter", 
  "doctype_or_field": "DocField", 
  "field_name": "barcode", 
  "modified": "2018-10-14 01:49:21.289699", 
  "name": "Stock Entry Detail-barcode-hidden", 
  "parent": null, 
  "parentfield": null, 
  "parenttype": null, 
  "property": "hidden", 
  "property_type": "Check", 
  "value": "0"
 }, 
 {
  "_assign": null, 
  "_comments": null, 
  "_liked_by": null, 
  "_user_tags": null, 
  "default_value": null, 
  "doc_type": "Item", 
  "docstatus": 0, 
  "doctype": "Property Setter", 
  "doctype_or_field": "DocField", 
  "field_name": "barcode", 
  "modified": "2018-10-14 01:49:21.358765", 
  "name": "Item-barcode-hidden", 
  "parent": null, 
  "parentfield": null, 
  "parenttype": null, 
  "property": "hidden", 
  "property_type": "Check", 
  "value": "0"
 }, 
 {
  "_assign": null, 
  "_comments": null, 
  "_liked_by": null, 
  "_user_tags": null, 
  "default_value": null, 
  "doc_type": "BOM", 
  "docstatus": 0, 
  "doctype": "Property Setter", 
  "doctype_or_field": "DocType", 
  "field_name": null, 
  "modified": "2018-10-14 13:57:12.700700", 
  "name": "BOM-default_print_format", 
  "parent": null, 
  "parentfield": null, 
  "parenttype": null, 
  "property": "default_print_format", 
  "property_type": "Data", 
  "value": "BOM-neu-Stephan"
 }, 
 {
  "_assign": null, 
  "_comments": null, 
  "_liked_by": null, 
  "_user_tags": null, 
  "default_value": null, 
  "doc_type": "Item", 
  "docstatus": 0, 
  "doctype": "Property Setter", 
  "doctype_or_field": "DocField", 
  "field_name": "barcode", 
  "modified": "2018-10-18 17:43:24.427578", 
  "name": "Item-barcode-in_global_search", 
  "parent": null, 
  "parentfield": null, 
  "parenttype": null, 
  "property": "in_global_search", 
  "property_type": "Check", 
  "value": "1"
 }, 
 {
  "_assign": null, 
  "_comments": null, 
  "_liked_by": null, 
  "_user_tags": null, 
  "default_value": null, 
  "doc_type": "Item", 
  "docstatus": 0, 
  "doctype": "Property Setter", 
  "doctype_or_field": "DocField", 
  "field_name": "naming_series", 
  "modified": "2018-10-20 10:00:54.323527", 
  "name": "Item-naming_series-options", 
  "parent": null, 
  "parentfield": null, 
  "parenttype": null, 
  "property": "options", 
  "property_type": "Text", 
  "value": "ITEM-\nitem"
 }, 
 {
  "_assign": null, 
  "_comments": null, 
  "_liked_by": null, 
  "_user_tags": null, 
  "default_value": null, 
  "doc_type": "Item", 
  "docstatus": 0, 
  "doctype": "Property Setter", 
  "doctype_or_field": "DocField", 
  "field_name": "variant_of", 
  "modified": "2018-11-05 19:52:25.422409", 
  "name": "Item-variant_of-in_standard_filter", 
  "parent": null, 
  "parentfield": null, 
  "parenttype": null, 
  "property": "in_standard_filter", 
  "property_type": "Check", 
  "value": "0"
 }, 
 {
  "_assign": null, 
  "_comments": null, 
  "_liked_by": null, 
  "_user_tags": null, 
  "default_value": null, 
  "doc_type": "Item", 
  "docstatus": 0, 
  "doctype": "Property Setter", 
  "doctype_or_field": "DocField", 
  "field_name": "item_name", 
  "modified": "2018-11-05 19:52:25.697908", 
  "name": "Item-item_name-in_standard_filter", 
  "parent": null, 
  "parentfield": null, 
  "parenttype": null, 
  "property": "in_standard_filter", 
  "property_type": "Check", 
  "value": "1"
 }, 
 {
  "_assign": null, 
  "_comments": null, 
  "_liked_by": null, 
  "_user_tags": null, 
  "default_value": null, 
  "doc_type": "Item", 
  "docstatus": 0, 
  "doctype": "Property Setter", 
  "doctype_or_field": "DocField", 
  "field_name": "inventory", 
  "modified": "2018-11-05 19:56:22.851079", 
  "name": "Item-inventory-collapsible_depends_on", 
  "parent": null, 
  "parentfield": null, 
  "parenttype": null, 
  "property": "collapsible_depends_on", 
  "property_type": "Data", 
  "value": ""
 }, 
 {
  "_assign": null, 
  "_comments": null, 
  "_liked_by": null, 
  "_user_tags": null, 
  "default_value": null, 
  "doc_type": "Item", 
  "docstatus": 0, 
  "doctype": "Property Setter", 
  "doctype_or_field": "DocField", 
  "field_name": "manufacturing", 
  "modified": "2018-11-05 19:56:22.885432", 
  "name": "Item-manufacturing-collapsible_depends_on", 
  "parent": null, 
  "parentfield": null, 
  "parenttype": null, 
  "property": "collapsible_depends_on", 
  "property_type": "Data", 
  "value": ""
 }, 
 {
  "_assign": null, 
  "_comments": null, 
  "_liked_by": null, 
  "_user_tags": null, 
  "default_value": null, 
  "doc_type": "Item", 
  "docstatus": 0, 
  "doctype": "Property Setter", 
  "doctype_or_field": "DocField", 
  "field_name": "section_break_11", 
  "modified": "2018-11-05 20:01:52.549529", 
  "name": "Item-section_break_11-hidden", 
  "parent": null, 
  "parentfield": null, 
  "parenttype": null, 
  "property": "hidden", 
  "property_type": "Check", 
  "value": "1"
 }, 
 {
  "_assign": null, 
  "_comments": null, 
  "_liked_by": null, 
  "_user_tags": null, 
  "default_value": null, 
  "doc_type": "Item", 
  "docstatus": 0, 
  "doctype": "Property Setter", 
  "doctype_or_field": "DocField", 
  "field_name": "reorder_section", 
  "modified": "2018-11-05 20:01:52.573800", 
  "name": "Item-reorder_section-hidden", 
  "parent": null, 
  "parentfield": null, 
  "parenttype": null, 
  "property": "hidden", 
  "property_type": "Check", 
  "value": "1"
 }, 
 {
  "_assign": null, 
  "_comments": null, 
  "_liked_by": null, 
  "_user_tags": null, 
  "default_value": null, 
  "doc_type": "Item", 
  "docstatus": 0, 
  "doctype": "Property Setter", 
  "doctype_or_field": "DocField", 
  "field_name": "serial_nos_and_batches", 
  "modified": "2018-11-05 20:01:52.583014", 
  "name": "Item-serial_nos_and_batches-hidden", 
  "parent": null, 
  "parentfield": null, 
  "parenttype": null, 
  "property": "hidden", 
  "property_type": "Check", 
  "value": "1"
 }, 
 {
  "_assign": null, 
  "_comments": null, 
  "_liked_by": null, 
  "_user_tags": null, 
  "default_value": null, 
  "doc_type": "Item", 
  "docstatus": 0, 
  "doctype": "Property Setter", 
  "doctype_or_field": "DocField", 
  "field_name": "customer_details", 
  "modified": "2018-11-05 20:01:52.609375", 
  "name": "Item-customer_details-hidden", 
  "parent": null, 
  "parentfield": null, 
  "parenttype": null, 
  "property": "hidden", 
  "property_type": "Check", 
  "value": "1"
 }, 
 {
  "_assign": null, 
  "_comments": null, 
  "_liked_by": null, 
  "_user_tags": null, 
  "default_value": null, 
  "doc_type": "Item", 
  "docstatus": 0, 
  "doctype": "Property Setter", 
  "doctype_or_field": "DocField", 
  "field_name": "taxes", 
  "modified": "2018-11-05 20:01:52.693527", 
  "name": "Item-taxes-hidden", 
  "parent": null, 
  "parentfield": null, 
  "parenttype": null, 
  "property": "hidden", 
  "property_type": "Check", 
  "value": "1"
 }, 
 {
  "_assign": null, 
  "_comments": null, 
  "_liked_by": null, 
  "_user_tags": null, 
  "default_value": null, 
  "doc_type": "Item", 
  "docstatus": 0, 
  "doctype": "Property Setter", 
  "doctype_or_field": "DocField", 
  "field_name": "website_section", 
  "modified": "2018-11-05 20:01:52.709711", 
  "name": "Item-website_section-hidden", 
  "parent": null, 
  "parentfield": null, 
  "parenttype": null, 
  "property": "hidden", 
  "property_type": "Check", 
  "value": "1"
 }, 
 {
  "_assign": null, 
  "_comments": null, 
  "_liked_by": null, 
  "_user_tags": null, 
  "default_value": null, 
  "doc_type": "Item", 
  "docstatus": 0, 
  "doctype": "Property Setter", 
  "doctype_or_field": "DocField", 
  "field_name": "hub_publishing_sb", 
  "modified": "2018-11-05 20:01:52.765370", 
  "name": "Item-hub_publishing_sb-hidden", 
  "parent": null, 
  "parentfield": null, 
  "parenttype": null, 
  "property": "hidden", 
  "property_type": "Check", 
  "value": "1"
 }, 
 {
  "_assign": null, 
  "_comments": null, 
  "_liked_by": null, 
  "_user_tags": null, 
  "default_value": null, 
  "doc_type": "Item", 
  "docstatus": 0, 
  "doctype": "Property Setter", 
  "doctype_or_field": "DocField", 
  "field_name": "is_item_from_hub", 
  "modified": "2018-11-05 20:04:12.039526", 
  "name": "Item-is_item_from_hub-hidden", 
  "parent": null, 
  "parentfield": null, 
  "parenttype": null, 
  "property": "hidden", 
  "property_type": "Check", 
  "value": "1"
 }, 
 {
  "_assign": null, 
  "_comments": null, 
  "_liked_by": null, 
  "_user_tags": null, 
  "default_value": null, 
  "doc_type": "Item", 
  "docstatus": 0, 
  "doctype": "Property Setter", 
  "doctype_or_field": "DocField", 
  "field_name": "delivered_by_supplier", 
  "modified": "2018-11-05 20:04:12.092075", 
  "name": "Item-delivered_by_supplier-hidden", 
  "parent": null, 
  "parentfield": null, 
  "parenttype": null, 
  "property": "hidden", 
  "property_type": "Check", 
  "value": "1"
 }, 
 {
  "_assign": null, 
  "_comments": null, 
  "_liked_by": null, 
  "_user_tags": null, 
  "default_value": null, 
  "doc_type": "Item", 
  "docstatus": 0, 
  "doctype": "Property Setter", 
  "doctype_or_field": "DocField", 
  "field_name": "barcode", 
  "modified": "2018-11-06 06:57:10.794004", 
  "name": "Item-barcode-in_standard_filter", 
  "parent": null, 
  "parentfield": null, 
  "parenttype": null, 
  "property": "in_standard_filter", 
  "property_type": "Check", 
  "value": "1"
 }, 
 {
  "_assign": null, 
  "_comments": null, 
  "_liked_by": null, 
  "_user_tags": null, 
  "default_value": null, 
  "doc_type": "Item", 
  "docstatus": 0, 
  "doctype": "Property Setter", 
  "doctype_or_field": "DocField", 
  "field_name": "variants_section", 
  "modified": "2018-11-06 06:57:10.863673", 
  "name": "Item-variants_section-hidden", 
  "parent": null, 
  "parentfield": null, 
  "parenttype": null, 
  "property": "hidden", 
  "property_type": "Check", 
  "value": "1"
 }, 
 {
  "_assign": null, 
  "_comments": null, 
  "_liked_by": null, 
  "_user_tags": null, 
  "default_value": null, 
  "doc_type": "Item", 
  "docstatus": 0, 
  "doctype": "Property Setter", 
  "doctype_or_field": "DocField", 
  "field_name": "inspection_criteria", 
  "modified": "2018-11-06 06:57:10.900559", 
  "name": "Item-inspection_criteria-hidden", 
  "parent": null, 
  "parentfield": null, 
  "parenttype": null, 
  "property": "hidden", 
  "property_type": "Check", 
  "value": "1"
 }, 
 {
  "_assign": null, 
  "_comments": null, 
  "_liked_by": null, 
  "_user_tags": null, 
  "default_value": null, 
  "doc_type": "Stock Entry", 
  "docstatus": 0, 
  "doctype": "Property Setter", 
  "doctype_or_field": "DocType", 
  "field_name": null, 
  "modified": "2018-11-07 11:34:38.626560", 
  "name": "Stock Entry-default_print_format", 
  "parent": null, 
  "parentfield": null, 
  "parenttype": null, 
  "property": "default_print_format", 
  "property_type": "Data", 
  "value": "Stock Entry"
 }, 
 {
  "_assign": null, 
  "_comments": null, 
  "_liked_by": null, 
  "_user_tags": null, 
  "default_value": null, 
  "doc_type": "Stock Entry", 
  "docstatus": 0, 
  "doctype": "Property Setter", 
  "doctype_or_field": "DocField", 
  "field_name": "value_difference", 
  "modified": "2018-11-07 11:34:39.839847", 
  "name": "Stock Entry-value_difference-print_hide", 
  "parent": null, 
  "parentfield": null, 
  "parenttype": null, 
  "property": "print_hide", 
  "property_type": "Check", 
  "value": "1"
 }, 
 {
  "_assign": null, 
  "_comments": null, 
  "_liked_by": null, 
  "_user_tags": null, 
  "default_value": null, 
  "doc_type": "Stock Entry", 
  "docstatus": 0, 
  "doctype": "Property Setter", 
  "doctype_or_field": "DocField", 
  "field_name": "total_amount", 
  "modified": "2018-11-07 11:34:40.033756", 
  "name": "Stock Entry-total_amount-print_hide", 
  "parent": null, 
  "parentfield": null, 
  "parenttype": null, 
  "property": "print_hide", 
  "property_type": "Check", 
  "value": "1"
 }, 
 {
  "_assign": null, 
  "_comments": null, 
  "_liked_by": null, 
  "_user_tags": null, 
  "default_value": null, 
  "doc_type": "Item", 
  "docstatus": 0, 
  "doctype": "Property Setter", 
  "doctype_or_field": "DocField", 
  "field_name": "default_supplier", 
  "modified": "2018-11-11 20:12:07.428110", 
  "name": "Item-default_supplier-in_standard_filter", 
  "parent": null, 
  "parentfield": null, 
  "parenttype": null, 
  "property": "in_standard_filter", 
  "property_type": "Check", 
  "value": "1"
 }, 
 {
  "_assign": null, 
  "_comments": null, 
  "_liked_by": null, 
  "_user_tags": null, 
  "default_value": null, 
  "doc_type": "Item", 
  "docstatus": 0, 
  "doctype": "Property Setter", 
  "doctype_or_field": "DocField", 
  "field_name": "barcode", 
  "modified": "2018-11-11 20:12:44.152702", 
  "name": "Item-barcode-read_only", 
  "parent": null, 
  "parentfield": null, 
  "parenttype": null, 
  "property": "read_only", 
  "property_type": "Check", 
  "value": "1"
 }, 
 {
  "_assign": null, 
  "_comments": null, 
  "_liked_by": null, 
  "_user_tags": null, 
  "default_value": null, 
  "doc_type": "Production Plan", 
  "docstatus": 0, 
  "doctype": "Property Setter", 
  "doctype_or_field": "DocType", 
  "field_name": null, 
  "modified": "2018-11-21 21:04:52.519796", 
  "name": "Production Plan-read_only_onload", 
  "parent": null, 
  "parentfield": null, 
  "parenttype": null, 
  "property": "read_only_onload", 
  "property_type": "Check", 
  "value": null
 }, 
 {
  "_assign": null, 
  "_comments": null, 
  "_liked_by": null, 
  "_user_tags": null, 
  "default_value": null, 
  "doc_type": "Production Plan Item", 
  "docstatus": 0, 
  "doctype": "Property Setter", 
  "doctype_or_field": "DocType", 
  "field_name": null, 
  "modified": "2018-11-21 21:52:00.279562", 
  "name": "Production Plan Item-read_only_onload", 
  "parent": null, 
  "parentfield": null, 
  "parenttype": null, 
  "property": "read_only_onload", 
  "property_type": "Check", 
  "value": null
 }, 
 {
  "_assign": null, 
  "_comments": null, 
  "_liked_by": null, 
  "_user_tags": null, 
  "default_value": null, 
  "doc_type": "Work Order", 
  "docstatus": 0, 
  "doctype": "Property Setter", 
  "doctype_or_field": "DocType", 
  "field_name": null, 
  "modified": "2018-11-21 22:05:14.466440", 
  "name": "Work Order-read_only_onload", 
  "parent": null, 
  "parentfield": null, 
  "parenttype": null, 
  "property": "read_only_onload", 
  "property_type": "Check", 
  "value": null
 }, 
 {
  "_assign": null, 
  "_comments": null, 
  "_liked_by": null, 
  "_user_tags": null, 
  "default_value": null, 
  "doc_type": "Purchase Order Item Supplied", 
  "docstatus": 0, 
  "doctype": "Property Setter", 
  "doctype_or_field": "DocField", 
  "field_name": "required_qty", 
  "modified": "2018-11-27 19:33:11.511667", 
  "name": "Purchase Order Item Supplied-required_qty-columns", 
  "parent": null, 
  "parentfield": null, 
  "parenttype": null, 
  "property": "columns", 
  "property_type": "Int", 
  "value": "1"
 }, 
 {
  "_assign": null, 
  "_comments": null, 
  "_liked_by": null, 
  "_user_tags": null, 
  "default_value": null, 
  "doc_type": "Purchase Order Item Supplied", 
  "docstatus": 0, 
  "doctype": "Property Setter", 
  "doctype_or_field": "DocField", 
  "field_name": "rate", 
  "modified": "2018-11-27 19:33:12.463569", 
  "name": "Purchase Order Item Supplied-rate-columns", 
  "parent": null, 
  "parentfield": null, 
  "parenttype": null, 
  "property": "columns", 
  "property_type": "Int", 
  "value": "1"
 }, 
 {
  "_assign": null, 
  "_comments": null, 
  "_liked_by": null, 
  "_user_tags": null, 
  "default_value": null, 
  "doc_type": "BOM", 
  "docstatus": 0, 
  "doctype": "Property Setter", 
  "doctype_or_field": "DocField", 
  "field_name": "item_name", 
  "modified": "2018-11-29 13:55:53.745194", 
  "name": "BOM-item_name-in_standard_filter", 
  "parent": null, 
  "parentfield": null, 
  "parenttype": null, 
  "property": "in_standard_filter", 
  "property_type": "Check", 
  "value": "1"
 }, 
 {
  "_assign": null, 
  "_comments": null, 
  "_liked_by": null, 
  "_user_tags": null, 
  "default_value": null, 
  "doc_type": "Stock Entry Detail", 
  "docstatus": 0, 
  "doctype": "Property Setter", 
  "doctype_or_field": "DocField", 
  "field_name": "item_name", 
  "modified": "2018-12-03 18:51:40.998400", 
  "name": "Stock Entry Detail-item_name-in_list_view", 
  "parent": null, 
  "parentfield": null, 
  "parenttype": null, 
  "property": "in_list_view", 
  "property_type": "Check", 
  "value": "1"
 }, 
 {
  "_assign": null, 
  "_comments": null, 
  "_liked_by": null, 
  "_user_tags": null, 
  "default_value": null, 
  "doc_type": "Stock Entry Detail", 
  "docstatus": 0, 
  "doctype": "Property Setter", 
  "doctype_or_field": "DocField", 
  "field_name": "qty", 
  "modified": "2018-12-03 18:51:41.578258", 
  "name": "Stock Entry Detail-qty-columns", 
  "parent": null, 
  "parentfield": null, 
  "parenttype": null, 
  "property": "columns", 
  "property_type": "Int", 
  "value": "1"
 }, 
 {
  "_assign": null, 
  "_comments": null, 
  "_liked_by": null, 
  "_user_tags": null, 
  "default_value": null, 
  "doc_type": "Stock Entry Detail", 
  "docstatus": 0, 
  "doctype": "Property Setter", 
  "doctype_or_field": "DocField", 
  "field_name": "uom", 
  "modified": "2018-12-03 18:51:41.628436", 
  "name": "Stock Entry Detail-uom-in_list_view", 
  "parent": null, 
  "parentfield": null, 
  "parenttype": null, 
  "property": "in_list_view", 
  "property_type": "Check", 
  "value": "1"
 }, 
 {
  "_assign": null, 
  "_comments": null, 
  "_liked_by": null, 
  "_user_tags": null, 
  "default_value": null, 
  "doc_type": "Stock Entry Detail", 
  "docstatus": 0, 
  "doctype": "Property Setter", 
  "doctype_or_field": "DocField", 
  "field_name": "uom", 
  "modified": "2018-12-03 18:51:41.637206", 
  "name": "Stock Entry Detail-uom-columns", 
  "parent": null, 
  "parentfield": null, 
  "parenttype": null, 
  "property": "columns", 
  "property_type": "Int", 
  "value": "1"
 }, 
 {
  "_assign": null, 
  "_comments": null, 
  "_liked_by": null, 
  "_user_tags": null, 
  "default_value": null, 
  "doc_type": "Purchase Order Item", 
  "docstatus": 0, 
  "doctype": "Property Setter", 
  "doctype_or_field": "DocField", 
  "field_name": "rate", 
  "modified": "2018-12-03 19:03:59.434552", 
  "name": "Purchase Order Item-rate-columns", 
  "parent": null, 
  "parentfield": null, 
  "parenttype": null, 
  "property": "columns", 
  "property_type": "Int", 
  "value": "1"
 }, 
 {
  "_assign": null, 
  "_comments": null, 
  "_liked_by": null, 
  "_user_tags": null, 
  "default_value": null, 
  "doc_type": "Purchase Order Item", 
  "docstatus": 0, 
  "doctype": "Property Setter", 
  "doctype_or_field": "DocField", 
  "field_name": "amount", 
  "modified": "2018-12-03 19:03:59.617042", 
  "name": "Purchase Order Item-amount-columns", 
  "parent": null, 
  "parentfield": null, 
  "parenttype": null, 
  "property": "columns", 
  "property_type": "Int", 
  "value": "1"
 }, 
 {
  "_assign": null, 
  "_comments": null, 
  "_liked_by": null, 
  "_user_tags": null, 
  "default_value": null, 
  "doc_type": "BOM", 
  "docstatus": 0, 
  "doctype": "Property Setter", 
  "doctype_or_field": "DocField", 
  "field_name": "project", 
  "modified": "2018-12-07 17:02:31.777049", 
  "name": "BOM-project-in_standard_filter", 
  "parent": null, 
  "parentfield": null, 
  "parenttype": null, 
  "property": "in_standard_filter", 
  "property_type": "Check", 
  "value": "1"
 }, 
 {
  "_assign": null, 
  "_comments": null, 
  "_liked_by": null, 
  "_user_tags": null, 
  "default_value": null, 
  "doc_type": "Purchase Order Item", 
  "docstatus": 0, 
  "doctype": "Property Setter", 
  "doctype_or_field": "DocField", 
  "field_name": "schedule_date", 
  "modified": "2018-12-07 17:14:07.381528", 
  "name": "Purchase Order Item-schedule_date-columns", 
  "parent": null, 
  "parentfield": null, 
  "parenttype": null, 
  "property": "columns", 
  "property_type": "Int", 
  "value": "1"
 }, 
 {
  "_assign": null, 
  "_comments": null, 
  "_liked_by": null, 
  "_user_tags": null, 
  "default_value": null, 
  "doc_type": "Purchase Order", 
  "docstatus": 0, 
  "doctype": "Property Setter", 
  "doctype_or_field": "DocField", 
  "field_name": "company", 
  "modified": "2018-12-07 17:16:52.462978", 
  "name": "Purchase Order-company-in_standard_filter", 
  "parent": null, 
  "parentfield": null, 
  "parenttype": null, 
  "property": "in_standard_filter", 
  "property_type": "Check", 
  "value": "0"
 }, 
 {
  "_assign": null, 
  "_comments": null, 
  "_liked_by": null, 
  "_user_tags": null, 
  "default_value": null, 
  "doc_type": "Item Supplier", 
  "docstatus": 0, 
  "doctype": "Property Setter", 
  "doctype_or_field": "DocType", 
  "field_name": null, 
  "modified": "2018-12-07 18:59:11.666650", 
  "name": "Item Supplier-read_only_onload", 
  "parent": null, 
  "parentfield": null, 
  "parenttype": null, 
  "property": "read_only_onload", 
  "property_type": "Check", 
  "value": null
 }, 
 {
  "_assign": null, 
  "_comments": null, 
  "_liked_by": null, 
  "_user_tags": null, 
  "default_value": null, 
  "doc_type": "Item", 
  "docstatus": 0, 
  "doctype": "Property Setter", 
  "doctype_or_field": "DocField", 
  "field_name": "manufacturer", 
  "modified": "2018-12-07 19:01:33.841212", 
  "name": "Item-manufacturer-hidden", 
  "parent": null, 
  "parentfield": null, 
  "parenttype": null, 
  "property": "hidden", 
  "property_type": "Check", 
  "value": "1"
 }, 
 {
  "_assign": null, 
  "_comments": null, 
  "_liked_by": null, 
  "_user_tags": null, 
  "default_value": null, 
  "doc_type": "Item", 
  "docstatus": 0, 
  "doctype": "Property Setter", 
  "doctype_or_field": "DocField", 
  "field_name": "manufacturer_part_no", 
  "modified": "2018-12-07 19:01:33.846484", 
  "name": "Item-manufacturer_part_no-hidden", 
  "parent": null, 
  "parentfield": null, 
  "parenttype": null, 
  "property": "hidden", 
  "property_type": "Check", 
  "value": "1"
 }, 
 {
  "_assign": null, 
  "_comments": null, 
  "_liked_by": null, 
  "_user_tags": null, 
  "default_value": null, 
  "doc_type": "BOM Item", 
  "docstatus": 0, 
  "doctype": "Property Setter", 
  "doctype_or_field": "DocField", 
  "field_name": "image", 
  "modified": "2018-12-27 19:09:18.351889", 
  "name": "BOM Item-image-in_list_view", 
  "parent": null, 
  "parentfield": null, 
  "parenttype": null, 
  "property": "in_list_view", 
  "property_type": "Check", 
  "value": "1"
 }, 
 {
  "_assign": null, 
  "_comments": null, 
  "_liked_by": null, 
  "_user_tags": null, 
  "default_value": null, 
  "doc_type": "BOM Item", 
  "docstatus": 0, 
  "doctype": "Property Setter", 
  "doctype_or_field": "DocType", 
  "field_name": null, 
  "modified": "2018-12-27 19:27:14.354341", 
  "name": "BOM Item-read_only_onload", 
  "parent": null, 
  "parentfield": null, 
  "parenttype": null, 
  "property": "read_only_onload", 
  "property_type": "Check", 
  "value": null
 }, 
 {
  "_assign": null, 
  "_comments": null, 
  "_liked_by": null, 
  "_user_tags": null, 
  "default_value": null, 
  "doc_type": "BOM Item", 
  "docstatus": 0, 
  "doctype": "Property Setter", 
  "doctype_or_field": "DocField", 
  "field_name": "qty", 
  "modified": "2018-12-27 19:27:14.864783", 
  "name": "BOM Item-qty-columns", 
  "parent": null, 
  "parentfield": null, 
  "parenttype": null, 
  "property": "columns", 
  "property_type": "Int", 
  "value": "1"
 }, 
 {
  "_assign": null, 
  "_comments": null, 
  "_liked_by": null, 
  "_user_tags": null, 
  "default_value": null, 
  "doc_type": "BOM Item", 
  "docstatus": 0, 
  "doctype": "Property Setter", 
  "doctype_or_field": "DocField", 
  "field_name": "rate", 
  "modified": "2018-12-27 19:27:14.910958", 
  "name": "BOM Item-rate-columns", 
  "parent": null, 
  "parentfield": null, 
  "parenttype": null, 
  "property": "columns", 
  "property_type": "Int", 
  "value": "1"
 }, 
 {
  "_assign": null, 
  "_comments": null, 
  "_liked_by": null, 
  "_user_tags": null, 
  "default_value": null, 
  "doc_type": "BOM Item", 
  "docstatus": 0, 
  "doctype": "Property Setter", 
  "doctype_or_field": "DocField", 
  "field_name": "amount", 
  "modified": "2018-12-27 19:27:14.952991", 
  "name": "BOM Item-amount-columns", 
  "parent": null, 
  "parentfield": null, 
  "parenttype": null, 
  "property": "columns", 
  "property_type": "Int", 
  "value": "1"
 }, 
 {
  "_assign": null, 
  "_comments": null, 
  "_liked_by": null, 
  "_user_tags": null, 
  "default_value": null, 
  "doc_type": "Stock Entry Detail", 
  "docstatus": 0, 
  "doctype": "Property Setter", 
  "doctype_or_field": "DocField", 
  "field_name": "s_warehouse", 
  "modified": "2018-12-27 19:59:19.425698", 
  "name": "Stock Entry Detail-s_warehouse-columns", 
  "parent": null, 
  "parentfield": null, 
  "parenttype": null, 
  "property": "columns", 
  "property_type": "Int", 
  "value": "1"
 }, 
 {
  "_assign": null, 
  "_comments": null, 
  "_liked_by": null, 
  "_user_tags": null, 
  "default_value": null, 
  "doc_type": "Stock Entry Detail", 
  "docstatus": 0, 
  "doctype": "Property Setter", 
  "doctype_or_field": "DocField", 
  "field_name": "t_warehouse", 
  "modified": "2018-12-27 19:59:19.506425", 
  "name": "Stock Entry Detail-t_warehouse-columns", 
  "parent": null, 
  "parentfield": null, 
  "parenttype": null, 
  "property": "columns", 
  "property_type": "Int", 
  "value": "1"
 }, 
 {
  "_assign": null, 
  "_comments": null, 
  "_liked_by": null, 
  "_user_tags": null, 
  "default_value": null, 
  "doc_type": "Stock Entry Detail", 
  "docstatus": 0, 
  "doctype": "Property Setter", 
  "doctype_or_field": "DocField", 
  "field_name": "item_code", 
  "modified": "2018-12-27 20:01:55.629911", 
  "name": "Stock Entry Detail-item_code-columns", 
  "parent": null, 
  "parentfield": null, 
  "parenttype": null, 
  "property": "columns", 
  "property_type": "Int", 
  "value": "2"
 }, 
 {
  "_assign": null, 
  "_comments": null, 
  "_liked_by": null, 
  "_user_tags": null, 
  "default_value": null, 
  "doc_type": "Stock Entry Detail", 
  "docstatus": 0, 
  "doctype": "Property Setter", 
  "doctype_or_field": "DocField", 
  "field_name": "item_name", 
  "modified": "2018-12-27 20:01:55.658916", 
  "name": "Stock Entry Detail-item_name-columns", 
  "parent": null, 
  "parentfield": null, 
  "parenttype": null, 
  "property": "columns", 
  "property_type": "Int", 
  "value": "4"
 }, 
 {
  "_assign": null, 
  "_comments": null, 
  "_liked_by": null, 
  "_user_tags": null, 
  "default_value": null, 
  "doc_type": "BOM", 
  "docstatus": 0, 
  "doctype": "Property Setter", 
  "doctype_or_field": "DocType", 
  "field_name": null, 
  "modified": "2018-12-27 20:24:57.239654", 
  "name": "BOM-image_field", 
  "parent": null, 
  "parentfield": null, 
  "parenttype": null, 
  "property": "image_field", 
  "property_type": "Data", 
  "value": ""
 }, 
 {
  "_assign": null, 
  "_comments": null, 
  "_liked_by": null, 
  "_user_tags": null, 
  "default_value": null, 
  "doc_type": "BOM Explosion Item", 
  "docstatus": 0, 
  "doctype": "Property Setter", 
  "doctype_or_field": "DocField", 
  "field_name": "item_name", 
  "modified": "2019-01-17 07:01:47.767374", 
  "name": "BOM Explosion Item-item_name-in_list_view", 
  "parent": null, 
  "parentfield": null, 
  "parenttype": null, 
  "property": "in_list_view", 
  "property_type": "Check", 
  "value": "0"
 }, 
 {
  "_assign": null, 
  "_comments": null, 
  "_liked_by": null, 
  "_user_tags": null, 
  "default_value": null, 
  "doc_type": "BOM Explosion Item", 
  "docstatus": 0, 
  "doctype": "Property Setter", 
  "doctype_or_field": "DocField", 
  "field_name": "description", 
  "modified": "2019-01-17 07:01:47.773753", 
  "name": "BOM Explosion Item-description-in_list_view", 
  "parent": null, 
  "parentfield": null, 
  "parenttype": null, 
  "property": "in_list_view", 
  "property_type": "Check", 
  "value": "0"
 }, 
 {
  "_assign": null, 
  "_comments": null, 
  "_liked_by": null, 
  "_user_tags": null, 
  "default_value": null, 
  "doc_type": "BOM Explosion Item", 
  "docstatus": 0, 
  "doctype": "Property Setter", 
  "doctype_or_field": "DocField", 
  "field_name": "stock_qty", 
  "modified": "2019-01-17 07:01:47.780301", 
  "name": "BOM Explosion Item-stock_qty-columns", 
  "parent": null, 
  "parentfield": null, 
  "parenttype": null, 
  "property": "columns", 
  "property_type": "Int", 
  "value": "1"
 }, 
 {
  "_assign": null, 
  "_comments": null, 
  "_liked_by": null, 
  "_user_tags": null, 
  "default_value": null, 
  "doc_type": "BOM Explosion Item", 
  "docstatus": 0, 
  "doctype": "Property Setter", 
  "doctype_or_field": "DocType", 
  "field_name": null, 
  "modified": "2019-01-17 07:02:37.622870", 
  "name": "BOM Explosion Item-read_only_onload", 
  "parent": null, 
  "parentfield": null, 
  "parenttype": null, 
  "property": "read_only_onload", 
  "property_type": "Check", 
  "value": null
 }, 
 {
  "_assign": null, 
  "_comments": null, 
  "_liked_by": null, 
  "_user_tags": null, 
  "default_value": null, 
  "doc_type": "BOM Explosion Item", 
  "docstatus": 0, 
  "doctype": "Property Setter", 
  "doctype_or_field": "DocField", 
  "field_name": "item_code", 
  "modified": "2019-01-17 07:02:37.728349", 
  "name": "BOM Explosion Item-item_code-columns", 
  "parent": null, 
  "parentfield": null, 
  "parenttype": null, 
  "property": "columns", 
  "property_type": "Int", 
  "value": "7"
 }, 
 {
  "_assign": null, 
  "_comments": null, 
  "_liked_by": null, 
  "_user_tags": null, 
  "default_value": null, 
  "doc_type": "Purchase Order", 
  "docstatus": 0, 
  "doctype": "Property Setter", 
  "doctype_or_field": "DocField", 
  "field_name": "supplied_items", 
  "modified": "2019-01-17 07:26:51.645313", 
  "name": "Purchase Order-supplied_items-allow_bulk_edit", 
  "parent": null, 
  "parentfield": null, 
  "parenttype": null, 
  "property": "allow_bulk_edit", 
  "property_type": "Check", 
  "value": "1"
 }, 
 {
  "_assign": null, 
  "_comments": null, 
  "_liked_by": null, 
  "_user_tags": null, 
  "default_value": null, 
  "doc_type": "Purchase Order Item", 
  "docstatus": 0, 
  "doctype": "Property Setter", 
  "doctype_or_field": "DocField", 
  "field_name": "rate", 
  "modified": "2019-01-20 07:47:36.879377", 
  "name": "Purchase Order Item-rate-print_hide", 
  "parent": null, 
  "parentfield": null, 
  "parenttype": null, 
  "property": "print_hide", 
  "property_type": "Check", 
  "value": "1"
 }, 
 {
  "_assign": null, 
  "_comments": null, 
  "_liked_by": null, 
  "_user_tags": null, 
  "default_value": null, 
  "doc_type": "Purchase Order Item", 
  "docstatus": 0, 
  "doctype": "Property Setter", 
  "doctype_or_field": "DocField", 
  "field_name": "amount", 
  "modified": "2019-01-20 07:47:36.892825", 
  "name": "Purchase Order Item-amount-print_hide", 
  "parent": null, 
  "parentfield": null, 
  "parenttype": null, 
  "property": "print_hide", 
  "property_type": "Check", 
  "value": "1"
 }, 
 {
  "_assign": null, 
  "_comments": null, 
  "_liked_by": null, 
  "_user_tags": null, 
  "default_value": null, 
  "doc_type": "Purchase Order Item", 
  "docstatus": 0, 
  "doctype": "Property Setter", 
  "doctype_or_field": "DocField", 
  "field_name": "item_name", 
  "modified": "2019-01-20 07:55:24.593963", 
  "name": "Purchase Order Item-item_name-columns", 
  "parent": null, 
  "parentfield": null, 
  "parenttype": null, 
  "property": "columns", 
  "property_type": "Int", 
  "value": "3"
 }, 
 {
  "_assign": null, 
  "_comments": null, 
  "_liked_by": null, 
  "_user_tags": null, 
  "default_value": null, 
  "doc_type": "Item", 
  "docstatus": 0, 
  "doctype": "Property Setter", 
  "doctype_or_field": "DocField", 
  "field_name": "manufacturing", 
  "modified": "2019-01-29 20:12:24.833514", 
  "name": "Item-manufacturing-collapsible", 
  "parent": null, 
  "parentfield": null, 
  "parenttype": null, 
  "property": "collapsible", 
  "property_type": null, 
  "value": "0"
 }, 
 {
  "_assign": null, 
  "_comments": null, 
  "_liked_by": null, 
  "_user_tags": null, 
  "default_value": null, 
  "doc_type": "Item", 
  "docstatus": 0, 
  "doctype": "Property Setter", 
  "doctype_or_field": "DocField", 
  "field_name": "sales_details", 
  "modified": "2019-01-29 20:12:32.753157", 
  "name": "Item-sales_details-collapsible", 
  "parent": null, 
  "parentfield": null, 
  "parenttype": null, 
  "property": "collapsible", 
  "property_type": null, 
  "value": "0"
 }, 
 {
  "_assign": null, 
  "_comments": null, 
  "_liked_by": null, 
  "_user_tags": null, 
  "default_value": null, 
  "doc_type": "Purchase Order Item", 
  "docstatus": 0, 
  "doctype": "Property Setter", 
  "doctype_or_field": "DocField", 
  "field_name": "schedule_date", 
  "modified": "2019-01-29 20:42:42.752988", 
  "name": "Purchase Order Item-schedule_date-print_hide", 
  "parent": null, 
  "parentfield": null, 
  "parenttype": null, 
  "property": "print_hide", 
  "property_type": "Check", 
  "value": "0"
 }, 
 {
  "_assign": null, 
  "_comments": null, 
  "_liked_by": null, 
  "_user_tags": null, 
  "default_value": null, 
  "doc_type": "Purchase Order", 
  "docstatus": 0, 
  "doctype": "Property Setter", 
  "doctype_or_field": "DocField", 
  "field_name": "sb_last_purchase", 
  "modified": "2019-01-29 20:55:47.666910", 
  "name": "Purchase Order-sb_last_purchase-print_hide", 
  "parent": null, 
  "parentfield": null, 
  "parenttype": null, 
  "property": "print_hide", 
  "property_type": "Check", 
  "value": "1"
 }, 
 {
  "_assign": null, 
  "_comments": null, 
  "_liked_by": null, 
  "_user_tags": null, 
  "default_value": null, 
  "doc_type": "Purchase Order", 
  "docstatus": 0, 
  "doctype": "Property Setter", 
  "doctype_or_field": "DocField", 
  "field_name": "totals", 
  "modified": "2019-01-29 20:55:47.691404", 
  "name": "Purchase Order-totals-print_hide", 
  "parent": null, 
  "parentfield": null, 
  "parenttype": null, 
  "property": "print_hide", 
  "property_type": "Check", 
  "value": "1"
 }, 
 {
  "_assign": null, 
  "_comments": null, 
  "_liked_by": null, 
  "_user_tags": null, 
  "default_value": null, 
  "doc_type": "Purchase Order", 
  "docstatus": 0, 
  "doctype": "Property Setter", 
  "doctype_or_field": "DocField", 
  "field_name": "discount_section", 
  "modified": "2019-01-29 20:55:47.703483", 
  "name": "Purchase Order-discount_section-print_hide", 
  "parent": null, 
  "parentfield": null, 
  "parenttype": null, 
  "property": "print_hide", 
  "property_type": "Check", 
  "value": "1"
 }, 
 {
  "_assign": null, 
  "_comments": null, 
  "_liked_by": null, 
  "_user_tags": null, 
  "default_value": null, 
  "doc_type": "Purchase Order", 
  "docstatus": 0, 
  "doctype": "Property Setter", 
  "doctype_or_field": "DocField", 
  "field_name": "totals_section", 
  "modified": "2019-01-29 20:55:47.716871", 
  "name": "Purchase Order-totals_section-print_hide", 
  "parent": null, 
  "parentfield": null, 
  "parenttype": null, 
  "property": "print_hide", 
  "property_type": "Check", 
  "value": "1"
 }, 
 {
  "_assign": null, 
  "_comments": null, 
  "_liked_by": null, 
  "_user_tags": null, 
  "default_value": null, 
  "doc_type": "Purchase Order", 
  "docstatus": 0, 
  "doctype": "Property Setter", 
  "doctype_or_field": "DocField", 
  "field_name": "payment_schedule_section", 
  "modified": "2019-01-29 20:55:47.730351", 
  "name": "Purchase Order-payment_schedule_section-print_hide", 
  "parent": null, 
  "parentfield": null, 
  "parenttype": null, 
  "property": "print_hide", 
  "property_type": "Check", 
  "value": "1"
 }, 
 {
  "_assign": null, 
  "_comments": null, 
  "_liked_by": null, 
  "_user_tags": null, 
  "default_value": null, 
  "doc_type": "Purchase Order", 
  "docstatus": 0, 
  "doctype": "Property Setter", 
  "doctype_or_field": "DocField", 
  "field_name": "total", 
  "modified": "2019-01-29 20:59:28.490274", 
  "name": "Purchase Order-total-print_hide", 
  "parent": null, 
  "parentfield": null, 
  "parenttype": null, 
  "property": "print_hide", 
  "property_type": "Check", 
  "value": "1"
 }, 
 {
  "_assign": null, 
  "_comments": null, 
  "_liked_by": null, 
  "_user_tags": null, 
  "default_value": null, 
  "doc_type": "Purchase Order", 
  "docstatus": 0, 
  "doctype": "Property Setter", 
  "doctype_or_field": "DocField", 
  "field_name": "grand_total", 
  "modified": "2019-01-29 21:01:10.231937", 
  "name": "Purchase Order-grand_total-print_hide", 
  "parent": null, 
  "parentfield": null, 
  "parenttype": null, 
  "property": "print_hide", 
  "property_type": "Check", 
  "value": "1"
 }, 
 {
  "_assign": null, 
  "_comments": null, 
  "_liked_by": null, 
  "_user_tags": null, 
  "default_value": null, 
  "doc_type": "Purchase Order", 
  "docstatus": 0, 
  "doctype": "Property Setter", 
  "doctype_or_field": "DocField", 
  "field_name": "rounded_total", 
  "modified": "2019-01-29 21:01:10.267108", 
  "name": "Purchase Order-rounded_total-print_hide", 
  "parent": null, 
  "parentfield": null, 
  "parenttype": null, 
  "property": "print_hide", 
  "property_type": "Check", 
  "value": "1"
 }, 
 {
  "_assign": null, 
  "_comments": null, 
  "_liked_by": null, 
  "_user_tags": null, 
  "default_value": null, 
  "doc_type": "Purchase Order", 
  "docstatus": 0, 
  "doctype": "Property Setter", 
  "doctype_or_field": "DocField", 
  "field_name": "disable_rounded_total", 
  "modified": "2019-01-29 21:01:10.274141", 
  "name": "Purchase Order-disable_rounded_total-print_hide", 
  "parent": null, 
  "parentfield": null, 
  "parenttype": null, 
  "property": "print_hide", 
  "property_type": "Check", 
  "value": "1"
 }, 
 {
  "_assign": null, 
  "_comments": null, 
  "_liked_by": null, 
  "_user_tags": null, 
  "default_value": null, 
  "doc_type": "BOM", 
  "docstatus": 0, 
  "doctype": "Property Setter", 
  "doctype_or_field": "DocField", 
  "field_name": "item_name", 
  "modified": "2019-02-01 16:52:56.031671", 
  "name": "BOM-item_name-in_list_view", 
  "parent": null, 
  "parentfield": null, 
  "parenttype": null, 
  "property": "in_list_view", 
  "property_type": "Check", 
  "value": "1"
 }, 
 {
  "_assign": null, 
  "_comments": null, 
  "_liked_by": null, 
  "_user_tags": null, 
  "default_value": null, 
  "doc_type": "Purchase Order Item", 
  "docstatus": 0, 
  "doctype": "Property Setter", 
  "doctype_or_field": "DocType", 
  "field_name": null, 
  "modified": "2019-03-07 02:56:13.067816", 
  "name": "Purchase Order Item-read_only_onload", 
  "parent": null, 
  "parentfield": null, 
  "parenttype": null, 
  "property": "read_only_onload", 
  "property_type": "Check", 
  "value": null
 }, 
 {
  "_assign": null, 
  "_comments": null, 
  "_liked_by": null, 
  "_user_tags": null, 
  "default_value": null, 
  "doc_type": "Purchase Order Item", 
  "docstatus": 0, 
  "doctype": "Property Setter", 
  "doctype_or_field": "DocField", 
  "field_name": "item_name", 
  "modified": "2019-03-07 02:56:13.104982", 
  "name": "Purchase Order Item-item_name-print_hide", 
  "parent": null, 
  "parentfield": null, 
  "parenttype": null, 
  "property": "print_hide", 
  "property_type": "Check", 
  "value": "0"
 }, 
 {
  "_assign": null, 
  "_comments": null, 
  "_liked_by": null, 
  "_user_tags": null, 
  "default_value": null, 
  "doc_type": "Purchase Order Item Supplied", 
  "docstatus": 0, 
  "doctype": "Property Setter", 
  "doctype_or_field": "DocType", 
  "field_name": null, 
  "modified": "2019-03-28 05:14:13.232407", 
  "name": "Purchase Order Item Supplied-read_only_onload", 
  "parent": null, 
  "parentfield": null, 
  "parenttype": null, 
  "property": "read_only_onload", 
  "property_type": "Check", 
  "value": null
 }, 
 {
  "_assign": null, 
  "_comments": null, 
  "_liked_by": null, 
  "_user_tags": null, 
  "default_value": null, 
  "doc_type": "Item Barcode", 
  "docstatus": 0, 
  "doctype": "Property Setter", 
  "doctype_or_field": "DocField", 
  "field_name": "barcode", 
  "modified": "2019-05-24 15:29:36.966710", 
  "name": "Item Barcode-barcode-hidden", 
  "parent": null, 
  "parentfield": null, 
  "parenttype": null, 
  "property": "hidden", 
  "property_type": "Check", 
  "value": "0"
 }, 
 {
  "_assign": null, 
  "_comments": null, 
  "_liked_by": null, 
  "_user_tags": null, 
  "default_value": null, 
  "doc_type": "BOM", 
  "docstatus": 0, 
  "doctype": "Property Setter", 
  "doctype_or_field": "DocType", 
  "field_name": null, 
  "modified": "2019-06-30 05:08:50.749446", 
  "name": "BOM-read_only_onload", 
  "parent": null, 
  "parentfield": null, 
  "parenttype": null, 
  "property": "read_only_onload", 
  "property_type": "Check", 
  "value": null
 }, 
 {
  "_assign": null, 
  "_comments": null, 
  "_liked_by": null, 
  "_user_tags": null, 
  "default_value": null, 
  "doc_type": "Item", 
  "docstatus": 0, 
  "doctype": "Property Setter", 
  "doctype_or_field": "DocField", 
  "field_name": "sb_barcodes", 
  "modified": "2019-07-07 04:07:07.780535", 
  "name": "Item-sb_barcodes-collapsible", 
  "parent": null, 
  "parentfield": null, 
  "parenttype": null, 
  "property": "collapsible", 
  "property_type": "Check", 
  "value": "1"
 }, 
 {
  "_assign": null, 
  "_comments": null, 
  "_liked_by": null, 
  "_user_tags": null, 
  "default_value": null, 
  "doc_type": "Item", 
  "docstatus": 0, 
  "doctype": "Property Setter", 
  "doctype_or_field": "DocField", 
  "field_name": "inventory_section", 
  "modified": "2019-07-07 04:07:07.785567", 
  "name": "Item-inventory_section-collapsible_depends_on", 
  "parent": null, 
  "parentfield": null, 
  "parenttype": null, 
  "property": "collapsible_depends_on", 
  "property_type": "Data", 
  "value": ""
 }, 
 {
  "_assign": null, 
  "_comments": null, 
  "_liked_by": null, 
  "_user_tags": null, 
  "default_value": null, 
  "doc_type": "Item", 
  "docstatus": 0, 
  "doctype": "Property Setter", 
  "doctype_or_field": "DocField", 
  "field_name": "defaults", 
  "modified": "2019-07-07 04:07:22.438521", 
  "name": "Item-defaults-collapsible", 
  "parent": null, 
  "parentfield": null, 
  "parenttype": null, 
  "property": "collapsible", 
  "property_type": "Check", 
  "value": "1"
 }, 
 {
  "_assign": null, 
  "_comments": null, 
  "_liked_by": null, 
  "_user_tags": null, 
  "default_value": null, 
  "doc_type": "Stock Entry", 
  "docstatus": 0, 
  "doctype": "Property Setter", 
  "doctype_or_field": "DocField", 
  "field_name": "title", 
  "modified": "2019-07-14 13:32:23.681126", 
  "name": "Stock Entry-title-in_standard_filter", 
  "parent": null, 
  "parentfield": null, 
  "parenttype": null, 
  "property": "in_standard_filter", 
  "property_type": "Check", 
  "value": "1"
 }, 
 {
  "_assign": null, 
  "_comments": null, 
  "_liked_by": null, 
  "_user_tags": null, 
  "default_value": null, 
  "doc_type": "Stock Entry", 
  "docstatus": 0, 
  "doctype": "Property Setter", 
  "doctype_or_field": "DocField", 
  "field_name": "title", 
  "modified": "2019-07-14 13:32:23.685434", 
  "name": "Stock Entry-title-in_global_search", 
  "parent": null, 
  "parentfield": null, 
  "parenttype": null, 
  "property": "in_global_search", 
  "property_type": "Check", 
  "value": "1"
 }, 
 {
  "_assign": null, 
  "_comments": null, 
  "_liked_by": null, 
  "_user_tags": null, 
  "default_value": null, 
  "doc_type": "Purchase Order", 
  "docstatus": 0, 
  "doctype": "Property Setter", 
  "doctype_or_field": "DocType", 
  "field_name": null, 
  "modified": "2019-07-25 17:24:20.363707", 
  "name": "Purchase Order-default_print_format", 
  "parent": null, 
  "parentfield": null, 
  "parenttype": null, 
  "property": "default_print_format", 
  "property_type": "Data", 
  "value": "Standard - PO"
 }, 
 {
  "_assign": null, 
  "_comments": null, 
  "_liked_by": null, 
  "_user_tags": null, 
  "default_value": null, 
  "doc_type": "Stock Entry", 
  "docstatus": 0, 
  "doctype": "Property Setter", 
  "doctype_or_field": "DocType", 
  "field_name": null, 
  "modified": "2019-09-15 15:44:07.551634", 
  "name": "Stock Entry-read_only_onload", 
  "parent": null, 
  "parentfield": null, 
  "parenttype": null, 
  "property": "read_only_onload", 
  "property_type": "Check", 
  "value": null
 }, 
 {
  "_assign": null, 
  "_comments": null, 
  "_liked_by": null, 
  "_user_tags": null, 
  "default_value": null, 
  "doc_type": "Supplier", 
  "docstatus": 0, 
  "doctype": "Property Setter", 
  "doctype_or_field": "DocField", 
  "field_name": "naming_series", 
  "modified": "2018-10-03 00:09:01.305512", 
  "name": "Supplier-naming_series-reqd", 
  "parent": null, 
  "parentfield": null, 
  "parenttype": null, 
  "property": "reqd", 
  "property_type": "Check", 
  "value": "0"
 }, 
 {
  "_assign": null, 
  "_comments": null, 
  "_liked_by": null, 
  "_user_tags": null, 
  "default_value": null, 
  "doc_type": "Supplier", 
  "docstatus": 0, 
  "doctype": "Property Setter", 
  "doctype_or_field": "DocField", 
  "field_name": "naming_series", 
  "modified": "2018-10-03 00:09:01.363689", 
  "name": "Supplier-naming_series-hidden", 
  "parent": null, 
  "parentfield": null, 
  "parenttype": null, 
  "property": "hidden", 
  "property_type": "Check", 
  "value": "1"
 }, 
 {
  "_assign": null, 
  "_comments": null, 
  "_liked_by": null, 
  "_user_tags": null, 
  "default_value": null, 
  "doc_type": "Sales Order", 
  "docstatus": 0, 
  "doctype": "Property Setter", 
  "doctype_or_field": "DocField", 
  "field_name": "due_date", 
  "modified": "2018-10-03 03:36:14.323247", 
  "name": "Sales Order-due_date-print_hide", 
  "parent": null, 
  "parentfield": null, 
  "parenttype": null, 
  "property": "print_hide", 
  "property_type": "Check", 
  "value": "0"
 }, 
 {
  "_assign": null, 
  "_comments": null, 
  "_liked_by": null, 
  "_user_tags": null, 
  "default_value": null, 
  "doc_type": "Sales Order", 
  "docstatus": 0, 
  "doctype": "Property Setter", 
  "doctype_or_field": "DocField", 
  "field_name": "payment_schedule", 
  "modified": "2018-10-03 03:36:14.444251", 
  "name": "Sales Order-payment_schedule-print_hide", 
  "parent": null, 
  "parentfield": null, 
  "parenttype": null, 
  "property": "print_hide", 
  "property_type": "Check", 
  "value": "1"
 }, 
 {
  "_assign": null, 
  "_comments": null, 
  "_liked_by": null, 
  "_user_tags": null, 
  "default_value": null, 
  "doc_type": "Sales Invoice", 
  "docstatus": 0, 
  "doctype": "Property Setter", 
  "doctype_or_field": "DocField", 
  "field_name": "due_date", 
  "modified": "2018-10-03 03:36:14.590627", 
  "name": "Sales Invoice-due_date-print_hide", 
  "parent": null, 
  "parentfield": null, 
  "parenttype": null, 
  "property": "print_hide", 
  "property_type": "Check", 
  "value": "0"
 }, 
 {
  "_assign": null, 
  "_comments": null, 
  "_liked_by": null, 
  "_user_tags": null, 
  "default_value": null, 
  "doc_type": "Sales Invoice", 
  "docstatus": 0, 
  "doctype": "Property Setter", 
  "doctype_or_field": "DocField", 
  "field_name": "payment_schedule", 
  "modified": "2018-10-03 03:36:14.781024", 
  "name": "Sales Invoice-payment_schedule-print_hide", 
  "parent": null, 
  "parentfield": null, 
  "parenttype": null, 
  "property": "print_hide", 
  "property_type": "Check", 
  "value": "1"
 }, 
 {
  "_assign": null, 
  "_comments": null, 
  "_liked_by": null, 
  "_user_tags": null, 
  "default_value": null, 
  "doc_type": "Purchase Invoice", 
  "docstatus": 0, 
  "doctype": "Property Setter", 
  "doctype_or_field": "DocField", 
  "field_name": "due_date", 
  "modified": "2018-10-03 03:36:15.210448", 
  "name": "Purchase Invoice-due_date-print_hide", 
  "parent": null, 
  "parentfield": null, 
  "parenttype": null, 
  "property": "print_hide", 
  "property_type": "Check", 
  "value": "0"
 }, 
 {
  "_assign": null, 
  "_comments": null, 
  "_liked_by": null, 
  "_user_tags": null, 
  "default_value": null, 
  "doc_type": "Purchase Invoice", 
  "docstatus": 0, 
  "doctype": "Property Setter", 
  "doctype_or_field": "DocField", 
  "field_name": "payment_schedule", 
  "modified": "2018-10-03 03:36:15.339585", 
  "name": "Purchase Invoice-payment_schedule-print_hide", 
  "parent": null, 
  "parentfield": null, 
  "parenttype": null, 
  "property": "print_hide", 
  "property_type": "Check", 
  "value": "1"
 }, 
 {
  "_assign": null, 
  "_comments": null, 
  "_liked_by": null, 
  "_user_tags": null, 
  "default_value": null, 
  "doc_type": "Customer", 
  "docstatus": 0, 
  "doctype": "Property Setter", 
  "doctype_or_field": "DocField", 
  "field_name": "naming_series", 
  "modified": "2018-10-29 23:05:49.629871", 
  "name": "Customer-naming_series-hidden", 
  "parent": null, 
  "parentfield": null, 
  "parenttype": null, 
  "property": "hidden", 
  "property_type": "Check", 
  "value": "0"
 }, 
 {
  "_assign": null, 
  "_comments": null, 
  "_liked_by": null, 
  "_user_tags": null, 
  "default_value": null, 
  "doc_type": "Customer", 
  "docstatus": 0, 
  "doctype": "Property Setter", 
  "doctype_or_field": "DocField", 
  "field_name": "naming_series", 
  "modified": "2018-10-29 23:05:49.907292", 
  "name": "Customer-naming_series-reqd", 
  "parent": null, 
  "parentfield": null, 
  "parenttype": null, 
  "property": "reqd", 
  "property_type": "Check", 
  "value": "1"
 }, 
 {
  "_assign": null, 
  "_comments": null, 
  "_liked_by": null, 
  "_user_tags": null, 
  "default_value": null, 
  "doc_type": "Sales Order", 
  "docstatus": 0, 
  "doctype": "Property Setter", 
  "doctype_or_field": "DocField", 
  "field_name": "tax_id", 
  "modified": "2018-10-29 23:05:50.532540", 
  "name": "Sales Order-tax_id-hidden", 
  "parent": null, 
  "parentfield": null, 
  "parenttype": null, 
  "property": "hidden", 
  "property_type": "Check", 
  "value": "0"
 }, 
 {
  "_assign": null, 
  "_comments": null, 
  "_liked_by": null, 
  "_user_tags": null, 
  "default_value": null, 
  "doc_type": "Sales Order", 
  "docstatus": 0, 
  "doctype": "Property Setter", 
  "doctype_or_field": "DocField", 
  "field_name": "tax_id", 
  "modified": "2018-10-29 23:05:50.962167", 
  "name": "Sales Order-tax_id-print_hide", 
  "parent": null, 
  "parentfield": null, 
  "parenttype": null, 
  "property": "print_hide", 
  "property_type": "Check", 
  "value": "0"
 }, 
 {
  "_assign": null, 
  "_comments": null, 
  "_liked_by": null, 
  "_user_tags": null, 
  "default_value": null, 
  "doc_type": "Sales Invoice", 
  "docstatus": 0, 
  "doctype": "Property Setter", 
  "doctype_or_field": "DocField", 
  "field_name": "tax_id", 
  "modified": "2018-10-29 23:05:51.419044", 
  "name": "Sales Invoice-tax_id-hidden", 
  "parent": null, 
  "parentfield": null, 
  "parenttype": null, 
  "property": "hidden", 
  "property_type": "Check", 
  "value": "0"
 }, 
 {
  "_assign": null, 
  "_comments": null, 
  "_liked_by": null, 
  "_user_tags": null, 
  "default_value": null, 
  "doc_type": "Sales Invoice", 
  "docstatus": 0, 
  "doctype": "Property Setter", 
  "doctype_or_field": "DocField", 
  "field_name": "tax_id", 
  "modified": "2018-10-29 23:05:51.902046", 
  "name": "Sales Invoice-tax_id-print_hide", 
  "parent": null, 
  "parentfield": null, 
  "parenttype": null, 
  "property": "print_hide", 
  "property_type": "Check", 
  "value": "0"
 }, 
 {
  "_assign": null, 
  "_comments": null, 
  "_liked_by": null, 
  "_user_tags": null, 
  "default_value": null, 
  "doc_type": "Delivery Note", 
  "docstatus": 0, 
  "doctype": "Property Setter", 
  "doctype_or_field": "DocField", 
  "field_name": "tax_id", 
  "modified": "2018-10-29 23:05:52.333682", 
  "name": "Delivery Note-tax_id-hidden", 
  "parent": null, 
  "parentfield": null, 
  "parenttype": null, 
  "property": "hidden", 
  "property_type": "Check", 
  "value": "0"
 }, 
 {
  "_assign": null, 
  "_comments": null, 
  "_liked_by": null, 
  "_user_tags": null, 
  "default_value": null, 
  "doc_type": "Delivery Note", 
  "docstatus": 0, 
  "doctype": "Property Setter", 
  "doctype_or_field": "DocField", 
  "field_name": "tax_id", 
  "modified": "2018-10-29 23:05:52.830319", 
  "name": "Delivery Note-tax_id-print_hide", 
  "parent": null, 
  "parentfield": null, 
  "parenttype": null, 
  "property": "print_hide", 
  "property_type": "Check", 
  "value": "0"
 }, 
 {
  "_assign": null, 
  "_comments": null, 
  "_liked_by": null, 
  "_user_tags": null, 
  "default_value": null, 
  "doc_type": "Supplier", 
  "docstatus": 0, 
  "doctype": "Property Setter", 
  "doctype_or_field": "DocType", 
  "field_name": null, 
  "modified": "2018-11-22 10:24:33.663184", 
  "name": "Supplier-read_only_onload", 
  "parent": null, 
  "parentfield": null, 
  "parenttype": null, 
  "property": "read_only_onload", 
  "property_type": "Check", 
  "value": null
 }, 
 {
  "_assign": null, 
  "_comments": null, 
  "_liked_by": null, 
  "_user_tags": null, 
  "default_value": null, 
  "doc_type": "Quotation", 
  "docstatus": 0, 
  "doctype": "Property Setter", 
  "doctype_or_field": "DocField", 
  "field_name": "base_rounded_total", 
  "modified": "2018-11-26 16:17:32.867600", 
  "name": "Quotation-base_rounded_total-hidden", 
  "parent": null, 
  "parentfield": null, 
  "parenttype": null, 
  "property": "hidden", 
  "property_type": "Check", 
  "value": "1"
 }, 
 {
  "_assign": null, 
  "_comments": null, 
  "_liked_by": null, 
  "_user_tags": null, 
  "default_value": null, 
  "doc_type": "Quotation", 
  "docstatus": 0, 
  "doctype": "Property Setter", 
  "doctype_or_field": "DocField", 
  "field_name": "base_rounded_total", 
  "modified": "2018-11-26 16:17:33.139104", 
  "name": "Quotation-base_rounded_total-print_hide", 
  "parent": null, 
  "parentfield": null, 
  "parenttype": null, 
  "property": "print_hide", 
  "property_type": "Check", 
  "value": "1"
 }, 
 {
  "_assign": null, 
  "_comments": null, 
  "_liked_by": null, 
  "_user_tags": null, 
  "default_value": null, 
  "doc_type": "Quotation", 
  "docstatus": 0, 
  "doctype": "Property Setter", 
  "doctype_or_field": "DocField", 
  "field_name": "rounded_total", 
  "modified": "2018-11-26 16:17:33.381853", 
  "name": "Quotation-rounded_total-hidden", 
  "parent": null, 
  "parentfield": null, 
  "parenttype": null, 
  "property": "hidden", 
  "property_type": "Check", 
  "value": "1"
 }, 
 {
  "_assign": null, 
  "_comments": null, 
  "_liked_by": null, 
  "_user_tags": null, 
  "default_value": null, 
  "doc_type": "Quotation", 
  "docstatus": 0, 
  "doctype": "Property Setter", 
  "doctype_or_field": "DocField", 
  "field_name": "rounded_total", 
  "modified": "2018-11-26 16:17:33.595599", 
  "name": "Quotation-rounded_total-print_hide", 
  "parent": null, 
  "parentfield": null, 
  "parenttype": null, 
  "property": "print_hide", 
  "property_type": "Check", 
  "value": "1"
 }, 
 {
  "_assign": null, 
  "_comments": null, 
  "_liked_by": null, 
  "_user_tags": null, 
  "default_value": null, 
  "doc_type": "Sales Order", 
  "docstatus": 0, 
  "doctype": "Property Setter", 
  "doctype_or_field": "DocField", 
  "field_name": "base_rounded_total", 
  "modified": "2018-11-26 16:17:33.987544", 
  "name": "Sales Order-base_rounded_total-hidden", 
  "parent": null, 
  "parentfield": null, 
  "parenttype": null, 
  "property": "hidden", 
  "property_type": "Check", 
  "value": "1"
 }, 
 {
  "_assign": null, 
  "_comments": null, 
  "_liked_by": null, 
  "_user_tags": null, 
  "default_value": null, 
  "doc_type": "Sales Order", 
  "docstatus": 0, 
  "doctype": "Property Setter", 
  "doctype_or_field": "DocField", 
  "field_name": "base_rounded_total", 
  "modified": "2018-11-26 16:17:34.286250", 
  "name": "Sales Order-base_rounded_total-print_hide", 
  "parent": null, 
  "parentfield": null, 
  "parenttype": null, 
  "property": "print_hide", 
  "property_type": "Check", 
  "value": "1"
 }, 
 {
  "_assign": null, 
  "_comments": null, 
  "_liked_by": null, 
  "_user_tags": null, 
  "default_value": null, 
  "doc_type": "Sales Order", 
  "docstatus": 0, 
  "doctype": "Property Setter", 
  "doctype_or_field": "DocField", 
  "field_name": "rounded_total", 
  "modified": "2018-11-26 16:17:34.570508", 
  "name": "Sales Order-rounded_total-hidden", 
  "parent": null, 
  "parentfield": null, 
  "parenttype": null, 
  "property": "hidden", 
  "property_type": "Check", 
  "value": "1"
 }, 
 {
  "_assign": null, 
  "_comments": null, 
  "_liked_by": null, 
  "_user_tags": null, 
  "default_value": null, 
  "doc_type": "Sales Order", 
  "docstatus": 0, 
  "doctype": "Property Setter", 
  "doctype_or_field": "DocField", 
  "field_name": "rounded_total", 
  "modified": "2018-11-26 16:17:34.860347", 
  "name": "Sales Order-rounded_total-print_hide", 
  "parent": null, 
  "parentfield": null, 
  "parenttype": null, 
  "property": "print_hide", 
  "property_type": "Check", 
  "value": "1"
 }, 
 {
  "_assign": null, 
  "_comments": null, 
  "_liked_by": null, 
  "_user_tags": null, 
  "default_value": null, 
  "doc_type": "Sales Invoice", 
  "docstatus": 0, 
  "doctype": "Property Setter", 
  "doctype_or_field": "DocField", 
  "field_name": "base_rounded_total", 
  "modified": "2018-11-26 16:17:35.170761", 
  "name": "Sales Invoice-base_rounded_total-hidden", 
  "parent": null, 
  "parentfield": null, 
  "parenttype": null, 
  "property": "hidden", 
  "property_type": "Check", 
  "value": "1"
 }, 
 {
  "_assign": null, 
  "_comments": null, 
  "_liked_by": null, 
  "_user_tags": null, 
  "default_value": null, 
  "doc_type": "Sales Invoice", 
  "docstatus": 0, 
  "doctype": "Property Setter", 
  "doctype_or_field": "DocField", 
  "field_name": "base_rounded_total", 
  "modified": "2018-11-26 16:17:35.532324", 
  "name": "Sales Invoice-base_rounded_total-print_hide", 
  "parent": null, 
  "parentfield": null, 
  "parenttype": null, 
  "property": "print_hide", 
  "property_type": "Check", 
  "value": "1"
 }, 
 {
  "_assign": null, 
  "_comments": null, 
  "_liked_by": null, 
  "_user_tags": null, 
  "default_value": null, 
  "doc_type": "Sales Invoice", 
  "docstatus": 0, 
  "doctype": "Property Setter", 
  "doctype_or_field": "DocField", 
  "field_name": "rounded_total", 
  "modified": "2018-11-26 16:17:35.905599", 
  "name": "Sales Invoice-rounded_total-hidden", 
  "parent": null, 
  "parentfield": null, 
  "parenttype": null, 
  "property": "hidden", 
  "property_type": "Check", 
  "value": "1"
 }, 
 {
  "_assign": null, 
  "_comments": null, 
  "_liked_by": null, 
  "_user_tags": null, 
  "default_value": null, 
  "doc_type": "Sales Invoice", 
  "docstatus": 0, 
  "doctype": "Property Setter", 
  "doctype_or_field": "DocField", 
  "field_name": "rounded_total", 
  "modified": "2018-11-26 16:17:36.288224", 
  "name": "Sales Invoice-rounded_total-print_hide", 
  "parent": null, 
  "parentfield": null, 
  "parenttype": null, 
  "property": "print_hide", 
  "property_type": "Check", 
  "value": "1"
 }, 
 {
  "_assign": null, 
  "_comments": null, 
  "_liked_by": null, 
  "_user_tags": null, 
  "default_value": null, 
  "doc_type": "Delivery Note", 
  "docstatus": 0, 
  "doctype": "Property Setter", 
  "doctype_or_field": "DocField", 
  "field_name": "base_rounded_total", 
  "modified": "2018-11-26 16:17:36.653572", 
  "name": "Delivery Note-base_rounded_total-hidden", 
  "parent": null, 
  "parentfield": null, 
  "parenttype": null, 
  "property": "hidden", 
  "property_type": "Check", 
  "value": "1"
 }, 
 {
  "_assign": null, 
  "_comments": null, 
  "_liked_by": null, 
  "_user_tags": null, 
  "default_value": null, 
  "doc_type": "Delivery Note", 
  "docstatus": 0, 
  "doctype": "Property Setter", 
  "doctype_or_field": "DocField", 
  "field_name": "base_rounded_total", 
  "modified": "2018-11-26 16:17:36.956997", 
  "name": "Delivery Note-base_rounded_total-print_hide", 
  "parent": null, 
  "parentfield": null, 
  "parenttype": null, 
  "property": "print_hide", 
  "property_type": "Check", 
  "value": "1"
 }, 
 {
  "_assign": null, 
  "_comments": null, 
  "_liked_by": null, 
  "_user_tags": null, 
  "default_value": null, 
  "doc_type": "Delivery Note", 
  "docstatus": 0, 
  "doctype": "Property Setter", 
  "doctype_or_field": "DocField", 
  "field_name": "rounded_total", 
  "modified": "2018-11-26 16:17:37.274023", 
  "name": "Delivery Note-rounded_total-hidden", 
  "parent": null, 
  "parentfield": null, 
  "parenttype": null, 
  "property": "hidden", 
  "property_type": "Check", 
  "value": "1"
 }, 
 {
  "_assign": null, 
  "_comments": null, 
  "_liked_by": null, 
  "_user_tags": null, 
  "default_value": null, 
  "doc_type": "Delivery Note", 
  "docstatus": 0, 
  "doctype": "Property Setter", 
  "doctype_or_field": "DocField", 
  "field_name": "rounded_total", 
  "modified": "2018-11-26 16:17:37.582918", 
  "name": "Delivery Note-rounded_total-print_hide", 
  "parent": null, 
  "parentfield": null, 
  "parenttype": null, 
  "property": "print_hide", 
  "property_type": "Check", 
  "value": "1"
 }, 
 {
  "_assign": null, 
  "_comments": null, 
  "_liked_by": null, 
  "_user_tags": null, 
  "default_value": null, 
  "doc_type": "Supplier Quotation", 
  "docstatus": 0, 
  "doctype": "Property Setter", 
  "doctype_or_field": "DocField", 
  "field_name": "base_rounded_total", 
  "modified": "2018-11-26 16:17:37.895993", 
  "name": "Supplier Quotation-base_rounded_total-hidden", 
  "parent": null, 
  "parentfield": null, 
  "parenttype": null, 
  "property": "hidden", 
  "property_type": "Check", 
  "value": "1"
 }, 
 {
  "_assign": null, 
  "_comments": null, 
  "_liked_by": null, 
  "_user_tags": null, 
  "default_value": null, 
  "doc_type": "Supplier Quotation", 
  "docstatus": 0, 
  "doctype": "Property Setter", 
  "doctype_or_field": "DocField", 
  "field_name": "base_rounded_total", 
  "modified": "2018-11-26 16:17:38.158138", 
  "name": "Supplier Quotation-base_rounded_total-print_hide", 
  "parent": null, 
  "parentfield": null, 
  "parenttype": null, 
  "property": "print_hide", 
  "property_type": "Check", 
  "value": "1"
 }, 
 {
  "_assign": null, 
  "_comments": null, 
  "_liked_by": null, 
  "_user_tags": null, 
  "default_value": null, 
  "doc_type": "Supplier Quotation", 
  "docstatus": 0, 
  "doctype": "Property Setter", 
  "doctype_or_field": "DocField", 
  "field_name": "rounded_total", 
  "modified": "2018-11-26 16:17:38.504538", 
  "name": "Supplier Quotation-rounded_total-hidden", 
  "parent": null, 
  "parentfield": null, 
  "parenttype": null, 
  "property": "hidden", 
  "property_type": "Check", 
  "value": "1"
 }, 
 {
  "_assign": null, 
  "_comments": null, 
  "_liked_by": null, 
  "_user_tags": null, 
  "default_value": null, 
  "doc_type": "Supplier Quotation", 
  "docstatus": 0, 
  "doctype": "Property Setter", 
  "doctype_or_field": "DocField", 
  "field_name": "rounded_total", 
  "modified": "2018-11-26 16:17:38.743655", 
  "name": "Supplier Quotation-rounded_total-print_hide", 
  "parent": null, 
  "parentfield": null, 
  "parenttype": null, 
  "property": "print_hide", 
  "property_type": "Check", 
  "value": "1"
 }, 
 {
  "_assign": null, 
  "_comments": null, 
  "_liked_by": null, 
  "_user_tags": null, 
  "default_value": null, 
  "doc_type": "Quotation", 
  "docstatus": 0, 
  "doctype": "Property Setter", 
  "doctype_or_field": "DocField", 
  "field_name": "in_words", 
  "modified": "2018-11-26 16:17:40.325517", 
  "name": "Quotation-in_words-hidden", 
  "parent": null, 
  "parentfield": null, 
  "parenttype": null, 
  "property": "hidden", 
  "property_type": "Check", 
  "value": "1"
 }, 
 {
  "_assign": null, 
  "_comments": null, 
  "_liked_by": null, 
  "_user_tags": null, 
  "default_value": null, 
  "doc_type": "Quotation", 
  "docstatus": 0, 
  "doctype": "Property Setter", 
  "doctype_or_field": "DocField", 
  "field_name": "in_words", 
  "modified": "2018-11-26 16:17:40.768339", 
  "name": "Quotation-in_words-print_hide", 
  "parent": null, 
  "parentfield": null, 
  "parenttype": null, 
  "property": "print_hide", 
  "property_type": "Check", 
  "value": "1"
 }, 
 {
  "_assign": null, 
  "_comments": null, 
  "_liked_by": null, 
  "_user_tags": null, 
  "default_value": null, 
  "doc_type": "Sales Order", 
  "docstatus": 0, 
  "doctype": "Property Setter", 
  "doctype_or_field": "DocField", 
  "field_name": "in_words", 
  "modified": "2018-11-26 16:17:41.070823", 
  "name": "Sales Order-in_words-hidden", 
  "parent": null, 
  "parentfield": null, 
  "parenttype": null, 
  "property": "hidden", 
  "property_type": "Check", 
  "value": "1"
 }, 
 {
  "_assign": null, 
  "_comments": null, 
  "_liked_by": null, 
  "_user_tags": null, 
  "default_value": null, 
  "doc_type": "Sales Order", 
  "docstatus": 0, 
  "doctype": "Property Setter", 
  "doctype_or_field": "DocField", 
  "field_name": "in_words", 
  "modified": "2018-11-26 16:17:41.395617", 
  "name": "Sales Order-in_words-print_hide", 
  "parent": null, 
  "parentfield": null, 
  "parenttype": null, 
  "property": "print_hide", 
  "property_type": "Check", 
  "value": "1"
 }, 
 {
  "_assign": null, 
  "_comments": null, 
  "_liked_by": null, 
  "_user_tags": null, 
  "default_value": null, 
  "doc_type": "Sales Invoice", 
  "docstatus": 0, 
  "doctype": "Property Setter", 
  "doctype_or_field": "DocField", 
  "field_name": "in_words", 
  "modified": "2018-11-26 16:17:41.882389", 
  "name": "Sales Invoice-in_words-hidden", 
  "parent": null, 
  "parentfield": null, 
  "parenttype": null, 
  "property": "hidden", 
  "property_type": "Check", 
  "value": "1"
 }, 
 {
  "_assign": null, 
  "_comments": null, 
  "_liked_by": null, 
  "_user_tags": null, 
  "default_value": null, 
  "doc_type": "Sales Invoice", 
  "docstatus": 0, 
  "doctype": "Property Setter", 
  "doctype_or_field": "DocField", 
  "field_name": "in_words", 
  "modified": "2018-11-26 16:17:42.435187", 
  "name": "Sales Invoice-in_words-print_hide", 
  "parent": null, 
  "parentfield": null, 
  "parenttype": null, 
  "property": "print_hide", 
  "property_type": "Check", 
  "value": "1"
 }, 
 {
  "_assign": null, 
  "_comments": null, 
  "_liked_by": null, 
  "_user_tags": null, 
  "default_value": null, 
  "doc_type": "Delivery Note", 
  "docstatus": 0, 
  "doctype": "Property Setter", 
  "doctype_or_field": "DocField", 
  "field_name": "in_words", 
  "modified": "2018-11-26 16:17:43.110587", 
  "name": "Delivery Note-in_words-hidden", 
  "parent": null, 
  "parentfield": null, 
  "parenttype": null, 
  "property": "hidden", 
  "property_type": "Check", 
  "value": "1"
 }, 
 {
  "_assign": null, 
  "_comments": null, 
  "_liked_by": null, 
  "_user_tags": null, 
  "default_value": null, 
  "doc_type": "Delivery Note", 
  "docstatus": 0, 
  "doctype": "Property Setter", 
  "doctype_or_field": "DocField", 
  "field_name": "in_words", 
  "modified": "2018-11-26 16:17:43.705145", 
  "name": "Delivery Note-in_words-print_hide", 
  "parent": null, 
  "parentfield": null, 
  "parenttype": null, 
  "property": "print_hide", 
  "property_type": "Check", 
  "value": "1"
 }, 
 {
  "_assign": null, 
  "_comments": null, 
  "_liked_by": null, 
  "_user_tags": null, 
  "default_value": null, 
  "doc_type": "Supplier Quotation", 
  "docstatus": 0, 
  "doctype": "Property Setter", 
  "doctype_or_field": "DocField", 
  "field_name": "in_words", 
  "modified": "2018-11-26 16:17:44.371251", 
  "name": "Supplier Quotation-in_words-hidden", 
  "parent": null, 
  "parentfield": null, 
  "parenttype": null, 
  "property": "hidden", 
  "property_type": "Check", 
  "value": "1"
 }, 
 {
  "_assign": null, 
  "_comments": null, 
  "_liked_by": null, 
  "_user_tags": null, 
  "default_value": null, 
  "doc_type": "Supplier Quotation", 
  "docstatus": 0, 
  "doctype": "Property Setter", 
  "doctype_or_field": "DocField", 
  "field_name": "in_words", 
  "modified": "2018-11-26 16:17:44.762152", 
  "name": "Supplier Quotation-in_words-print_hide", 
  "parent": null, 
  "parentfield": null, 
  "parenttype": null, 
  "property": "print_hide", 
  "property_type": "Check", 
  "value": "1"
 }, 
 {
  "_assign": null, 
  "_comments": null, 
  "_liked_by": null, 
  "_user_tags": null, 
  "default_value": null, 
  "doc_type": "Purchase Invoice", 
  "docstatus": 0, 
  "doctype": "Property Setter", 
  "doctype_or_field": "DocField", 
  "field_name": "in_words", 
  "modified": "2018-11-26 16:17:45.792181", 
  "name": "Purchase Invoice-in_words-hidden", 
  "parent": null, 
  "parentfield": null, 
  "parenttype": null, 
  "property": "hidden", 
  "property_type": "Check", 
  "value": "1"
 }, 
 {
  "_assign": null, 
  "_comments": null, 
  "_liked_by": null, 
  "_user_tags": null, 
  "default_value": null, 
  "doc_type": "Purchase Invoice", 
  "docstatus": 0, 
  "doctype": "Property Setter", 
  "doctype_or_field": "DocField", 
  "field_name": "in_words", 
  "modified": "2018-11-26 16:17:46.276802", 
  "name": "Purchase Invoice-in_words-print_hide", 
  "parent": null, 
  "parentfield": null, 
  "parenttype": null, 
  "property": "print_hide", 
  "property_type": "Check", 
  "value": "1"
 }, 
 {
  "_assign": null, 
  "_comments": null, 
  "_liked_by": null, 
  "_user_tags": null, 
  "default_value": null, 
  "doc_type": "Purchase Receipt", 
  "docstatus": 0, 
  "doctype": "Property Setter", 
  "doctype_or_field": "DocField", 
  "field_name": "in_words", 
  "modified": "2018-11-26 16:17:46.555860", 
  "name": "Purchase Receipt-in_words-hidden", 
  "parent": null, 
  "parentfield": null, 
  "parenttype": null, 
  "property": "hidden", 
  "property_type": "Check", 
  "value": "1"
 }, 
 {
  "_assign": null, 
  "_comments": null, 
  "_liked_by": null, 
  "_user_tags": null, 
  "default_value": null, 
  "doc_type": "Purchase Receipt", 
  "docstatus": 0, 
  "doctype": "Property Setter", 
  "doctype_or_field": "DocField", 
  "field_name": "in_words", 
  "modified": "2018-11-26 16:17:46.823342", 
  "name": "Purchase Receipt-in_words-print_hide", 
  "parent": null, 
  "parentfield": null, 
  "parenttype": null, 
  "property": "print_hide", 
  "property_type": "Check", 
  "value": "1"
 }, 
 {
  "_assign": null, 
  "_comments": null, 
  "_liked_by": null, 
  "_user_tags": null, 
  "default_value": null, 
  "doc_type": "Customer", 
  "docstatus": 0, 
  "doctype": "Property Setter", 
  "doctype_or_field": "DocField", 
  "field_name": "naming_series", 
  "modified": "2019-03-04 05:29:19.114908", 
  "name": "Customer-naming_series-options", 
  "parent": null, 
  "parentfield": null, 
  "parenttype": null, 
  "property": "options", 
  "property_type": "Text", 
  "value": "CUST-"
 }, 
 {
  "_assign": null, 
  "_comments": null, 
  "_liked_by": null, 
  "_user_tags": null, 
  "default_value": null, 
  "doc_type": "Attendance", 
  "docstatus": 0, 
  "doctype": "Property Setter", 
  "doctype_or_field": "DocField", 
  "field_name": "naming_series", 
  "modified": "2019-03-04 05:29:19.129938", 
  "name": "Attendance-naming_series-options", 
  "parent": null, 
  "parentfield": null, 
  "parenttype": null, 
  "property": "options", 
  "property_type": "Text", 
  "value": "ATT-"
 }, 
 {
  "_assign": null, 
  "_comments": null, 
  "_liked_by": null, 
  "_user_tags": null, 
  "default_value": null, 
  "doc_type": "Sales Order", 
  "docstatus": 0, 
  "doctype": "Property Setter", 
  "doctype_or_field": "DocField", 
  "field_name": "naming_series", 
  "modified": "2019-03-04 05:29:19.136661", 
  "name": "Sales Order-naming_series-options", 
  "parent": null, 
  "parentfield": null, 
  "parenttype": null, 
  "property": "options", 
  "property_type": "Text", 
  "value": "SO-"
 }, 
 {
  "_assign": null, 
  "_comments": null, 
  "_liked_by": null, 
  "_user_tags": null, 
  "default_value": null, 
  "doc_type": "Lead", 
  "docstatus": 0, 
  "doctype": "Property Setter", 
  "doctype_or_field": "DocField", 
  "field_name": "naming_series", 
  "modified": "2019-03-04 05:29:19.143408", 
  "name": "Lead-naming_series-options", 
  "parent": null, 
  "parentfield": null, 
  "parenttype": null, 
  "property": "options", 
  "property_type": "Text", 
  "value": "LEAD-"
 }, 
 {
  "_assign": null, 
  "_comments": null, 
  "_liked_by": null, 
  "_user_tags": null, 
  "default_value": null, 
  "doc_type": "Delivery Note", 
  "docstatus": 0, 
  "doctype": "Property Setter", 
  "doctype_or_field": "DocField", 
  "field_name": "naming_series", 
  "modified": "2019-03-04 05:29:19.150784", 
  "name": "Delivery Note-naming_series-options", 
  "parent": null, 
  "parentfield": null, 
  "parenttype": null, 
  "property": "options", 
  "property_type": "Text", 
  "value": "DN-\nDN-RET-"
 }, 
 {
  "_assign": null, 
  "_comments": null, 
  "_liked_by": null, 
  "_user_tags": null, 
  "default_value": null, 
  "doc_type": "Employee", 
  "docstatus": 0, 
  "doctype": "Property Setter", 
  "doctype_or_field": "DocField", 
  "field_name": "naming_series", 
  "modified": "2019-03-04 05:29:19.164999", 
  "name": "Employee-naming_series-options", 
  "parent": null, 
  "parentfield": null, 
  "parenttype": null, 
  "property": "options", 
  "property_type": "Text", 
  "value": "EMP/"
 }, 
 {
  "_assign": null, 
  "_comments": null, 
  "_liked_by": null, 
  "_user_tags": null, 
  "default_value": null, 
  "doc_type": "Sales Invoice", 
  "docstatus": 0, 
  "doctype": "Property Setter", 
  "doctype_or_field": "DocField", 
  "field_name": "naming_series", 
  "modified": "2019-03-04 05:29:19.171368", 
  "name": "Sales Invoice-naming_series-options", 
  "parent": null, 
  "parentfield": null, 
  "parenttype": null, 
  "property": "options", 
  "property_type": "Text", 
  "value": "SINV-\nSINV-RET-"
 }, 
 {
  "_assign": null, 
  "_comments": null, 
  "_liked_by": null, 
  "_user_tags": null, 
  "default_value": null, 
  "doc_type": "Purchase Receipt", 
  "docstatus": 0, 
  "doctype": "Property Setter", 
  "doctype_or_field": "DocField", 
  "field_name": "naming_series", 
  "modified": "2019-03-04 05:29:19.177957", 
  "name": "Purchase Receipt-naming_series-options", 
  "parent": null, 
  "parentfield": null, 
  "parenttype": null, 
  "property": "options", 
  "property_type": "Text", 
  "value": "PREC-RET-\nPREC-"
 }, 
 {
  "_assign": null, 
  "_comments": null, 
  "_liked_by": null, 
  "_user_tags": null, 
  "default_value": null, 
  "doc_type": "Supplier", 
  "docstatus": 0, 
  "doctype": "Property Setter", 
  "doctype_or_field": "DocField", 
  "field_name": "naming_series", 
  "modified": "2019-03-04 05:29:19.184260", 
  "name": "Supplier-naming_series-options", 
  "parent": null, 
  "parentfield": null, 
  "parenttype": null, 
  "property": "options", 
  "property_type": "Text", 
  "value": "SUPP-"
 }, 
 {
  "_assign": null, 
  "_comments": null, 
  "_liked_by": null, 
  "_user_tags": null, 
  "default_value": null, 
  "doc_type": "Payment Entry", 
  "docstatus": 0, 
  "doctype": "Property Setter", 
  "doctype_or_field": "DocField", 
  "field_name": "naming_series", 
  "modified": "2019-03-04 05:29:19.191005", 
  "name": "Payment Entry-naming_series-options", 
  "parent": null, 
  "parentfield": null, 
  "parenttype": null, 
  "property": "options", 
  "property_type": "Text", 
  "value": "PE-"
 }, 
 {
  "_assign": null, 
  "_comments": null, 
  "_liked_by": null, 
  "_user_tags": null, 
  "default_value": null, 
  "doc_type": "Purchase Invoice", 
  "docstatus": 0, 
  "doctype": "Property Setter", 
  "doctype_or_field": "DocField", 
  "field_name": "naming_series", 
  "modified": "2019-03-04 05:29:19.197467", 
  "name": "Purchase Invoice-naming_series-options", 
  "parent": null, 
  "parentfield": null, 
  "parenttype": null, 
  "property": "options", 
  "property_type": "Text", 
  "value": "PINV-\nPINV-RET-"
 }, 
 {
  "_assign": null, 
  "_comments": null, 
  "_liked_by": null, 
  "_user_tags": null, 
  "default_value": null, 
  "doc_type": "Bin", 
  "docstatus": 0, 
  "doctype": "Property Setter", 
  "doctype_or_field": "DocType", 
  "field_name": "", 
  "modified": "2019-03-04 05:29:19.700813", 
  "name": "Bin-autoname", 
  "parent": null, 
  "parentfield": null, 
  "parenttype": null, 
  "property": "autoname", 
  "property_type": "", 
  "value": "BIN/.#######"
 }, 
 {
  "_assign": null, 
  "_comments": null, 
  "_liked_by": null, 
  "_user_tags": null, 
  "default_value": null, 
  "doc_type": "Sales Taxes and Charges", 
  "docstatus": 0, 
  "doctype": "Property Setter", 
  "doctype_or_field": "DocType", 
  "field_name": "", 
  "modified": "2019-03-04 05:29:19.714917", 
  "name": "Sales Taxes and Charges-autoname", 
  "parent": null, 
  "parentfield": null, 
  "parenttype": null, 
  "property": "autoname", 
  "property_type": "", 
  "value": "INVTD.######"
 }, 
 {
  "_assign": null, 
  "_comments": null, 
  "_liked_by": null, 
  "_user_tags": null, 
  "default_value": null, 
  "doc_type": "Item Price", 
  "docstatus": 0, 
  "doctype": "Property Setter", 
  "doctype_or_field": "DocType", 
  "field_name": "", 
  "modified": "2019-03-04 05:29:19.724712", 
  "name": "Item Price-autoname", 
  "parent": null, 
  "parentfield": null, 
  "parenttype": null, 
  "property": "autoname", 
  "property_type": "", 
  "value": "ITEM-PRICE-.#####"
 }, 
 {
  "_assign": null, 
  "_comments": null, 
  "_liked_by": null, 
  "_user_tags": null, 
  "default_value": null, 
  "doc_type": "Event", 
  "docstatus": 0, 
  "doctype": "Property Setter", 
  "doctype_or_field": "DocType", 
  "field_name": "", 
  "modified": "2019-03-04 05:29:19.730891", 
  "name": "Event-autoname", 
  "parent": null, 
  "parentfield": null, 
  "parenttype": null, 
  "property": "autoname", 
  "property_type": "", 
  "value": "EV.#####"
 }, 
 {
  "_assign": null, 
  "_comments": null, 
  "_liked_by": null, 
  "_user_tags": null, 
  "default_value": null, 
  "doc_type": "Stock Ledger Entry", 
  "docstatus": 0, 
  "doctype": "Property Setter", 
  "doctype_or_field": "DocType", 
  "field_name": "", 
  "modified": "2019-03-04 05:29:19.737152", 
  "name": "Stock Ledger Entry-autoname", 
  "parent": null, 
  "parentfield": null, 
  "parenttype": null, 
  "property": "autoname", 
  "property_type": "", 
  "value": "SLE/.########"
 }, 
 {
  "_assign": null, 
  "_comments": null, 
  "_liked_by": null, 
  "_user_tags": null, 
  "default_value": null, 
  "doc_type": "GL Entry", 
  "docstatus": 0, 
  "doctype": "Property Setter", 
  "doctype_or_field": "DocType", 
  "field_name": "", 
  "modified": "2019-03-04 05:29:19.743049", 
  "name": "GL Entry-autoname", 
  "parent": null, 
  "parentfield": null, 
  "parenttype": null, 
  "property": "autoname", 
  "property_type": "", 
  "value": "GL.#######"
 }, 
 {
  "_assign": null, 
  "_comments": null, 
  "_liked_by": null, 
  "_user_tags": null, 
  "default_value": null, 
  "doc_type": "Customer", 
  "docstatus": 0, 
  "doctype": "Property Setter", 
  "doctype_or_field": "DocField", 
  "field_name": "customer_name", 
  "modified": "2019-03-04 05:29:22.530267", 
  "name": "Customer-customer_name-translatable", 
  "parent": null, 
  "parentfield": null, 
  "parenttype": null, 
  "property": "translatable", 
  "property_type": null, 
  "value": "1"
 }, 
 {
  "_assign": null, 
  "_comments": null, 
  "_liked_by": null, 
  "_user_tags": null, 
  "default_value": null, 
  "doc_type": "Supplier", 
  "docstatus": 0, 
  "doctype": "Property Setter", 
  "doctype_or_field": "DocField", 
  "field_name": "supplier_name", 
  "modified": "2019-03-04 05:29:22.532626", 
  "name": "Supplier-supplier_name-translatable", 
  "parent": null, 
  "parentfield": null, 
  "parenttype": null, 
  "property": "translatable", 
  "property_type": null, 
  "value": "1"
 }, 
 {
  "_assign": null, 
  "_comments": null, 
  "_liked_by": null, 
  "_user_tags": null, 
  "default_value": null, 
  "doc_type": "Contact", 
  "docstatus": 0, 
  "doctype": "Property Setter", 
  "doctype_or_field": "DocField", 
  "field_name": "first_name", 
  "modified": "2019-03-04 05:29:22.533282", 
  "name": "Contact-first_name-translatable", 
  "parent": null, 
  "parentfield": null, 
  "parenttype": null, 
  "property": "translatable", 
  "property_type": null, 
  "value": "1"
 }, 
 {
  "_assign": null, 
  "_comments": null, 
  "_liked_by": null, 
  "_user_tags": null, 
  "default_value": null, 
  "doc_type": "Contact", 
  "docstatus": 0, 
  "doctype": "Property Setter", 
  "doctype_or_field": "DocField", 
  "field_name": "last_name", 
  "modified": "2019-03-04 05:29:22.533914", 
  "name": "Contact-last_name-translatable", 
  "parent": null, 
  "parentfield": null, 
  "parenttype": null, 
  "property": "translatable", 
  "property_type": null, 
  "value": "1"
 }, 
 {
  "_assign": null, 
  "_comments": null, 
  "_liked_by": null, 
  "_user_tags": null, 
  "default_value": null, 
  "doc_type": "Address", 
  "docstatus": 0, 
  "doctype": "Property Setter", 
  "doctype_or_field": "DocField", 
  "field_name": "address_line1", 
  "modified": "2019-03-04 05:29:22.536783", 
  "name": "Address-address_line1-translatable", 
  "parent": null, 
  "parentfield": null, 
  "parenttype": null, 
  "property": "translatable", 
  "property_type": null, 
  "value": "1"
 }, 
 {
  "_assign": null, 
  "_comments": null, 
  "_liked_by": null, 
  "_user_tags": null, 
  "default_value": null, 
  "doc_type": "Address", 
  "docstatus": 0, 
  "doctype": "Property Setter", 
  "doctype_or_field": "DocField", 
  "field_name": "address_line2", 
  "modified": "2019-03-04 05:29:22.537734", 
  "name": "Address-address_line2-translatable", 
  "parent": null, 
  "parentfield": null, 
  "parenttype": null, 
  "property": "translatable", 
  "property_type": null, 
  "value": "1"
 }, 
 {
  "_assign": null, 
  "_comments": null, 
  "_liked_by": null, 
  "_user_tags": null, 
  "default_value": null, 
  "doc_type": "Employee", 
  "docstatus": 0, 
  "doctype": "Property Setter", 
  "doctype_or_field": "DocField", 
  "field_name": "naming_series", 
  "modified": "2019-03-04 05:29:38.400975", 
  "name": "Employee-naming_series-hidden", 
  "parent": null, 
  "parentfield": null, 
  "parenttype": null, 
  "property": "hidden", 
  "property_type": "Check", 
  "value": "0"
 }, 
 {
  "_assign": null, 
  "_comments": null, 
  "_liked_by": null, 
  "_user_tags": null, 
  "default_value": null, 
  "doc_type": "Employee", 
  "docstatus": 0, 
  "doctype": "Property Setter", 
  "doctype_or_field": "DocField", 
  "field_name": "naming_series", 
  "modified": "2019-03-04 05:29:38.416596", 
  "name": "Employee-naming_series-reqd", 
  "parent": null, 
  "parentfield": null, 
  "parenttype": null, 
  "property": "reqd", 
  "property_type": "Check", 
  "value": "1"
 }, 
 {
  "_assign": null, 
  "_comments": null, 
  "_liked_by": null, 
  "_user_tags": null, 
  "default_value": null, 
  "doc_type": "Employee", 
  "docstatus": 0, 
  "doctype": "Property Setter", 
  "doctype_or_field": "DocField", 
  "field_name": "employee_number", 
  "modified": "2019-03-04 05:29:38.471408", 
  "name": "Employee-employee_number-reqd", 
  "parent": null, 
  "parentfield": null, 
  "parenttype": null, 
  "property": "reqd", 
  "property_type": "Check", 
  "value": "0"
 }, 
 {
  "_assign": null, 
  "_comments": null, 
  "_liked_by": null, 
  "_user_tags": null, 
  "default_value": null, 
  "doc_type": "Employee", 
  "docstatus": 0, 
  "doctype": "Property Setter", 
  "doctype_or_field": "DocField", 
  "field_name": "employee_number", 
  "modified": "2019-03-04 05:29:38.478857", 
  "name": "Employee-employee_number-hidden", 
  "parent": null, 
  "parentfield": null, 
  "parenttype": null, 
  "property": "hidden", 
  "property_type": "Check", 
  "value": "1"
 }, 
 {
  "_assign": null, 
  "_comments": null, 
  "_liked_by": null, 
  "_user_tags": null, 
  "default_value": null, 
  "doc_type": "Sales Order", 
  "docstatus": 0, 
  "doctype": "Property Setter", 
  "doctype_or_field": "DocType", 
  "field_name": null, 
  "modified": "2019-03-09 19:16:54.949158", 
  "name": "Sales Order-read_only_onload", 
  "parent": null, 
  "parentfield": null, 
  "parenttype": null, 
  "property": "read_only_onload", 
  "property_type": "Check", 
  "value": null
 }, 
 {
  "_assign": null, 
  "_comments": null, 
  "_liked_by": null, 
  "_user_tags": null, 
  "default_value": null, 
  "doc_type": "Sortiment", 
  "docstatus": 0, 
  "doctype": "Property Setter", 
  "doctype_or_field": "DocType", 
  "field_name": null, 
  "modified": "2019-05-16 18:36:46.804003", 
  "name": "Sortiment-read_only_onload", 
  "parent": null, 
  "parentfield": null, 
  "parenttype": null, 
  "property": "read_only_onload", 
  "property_type": "Check", 
  "value": null
 }, 
 {
  "_assign": null, 
  "_comments": null, 
  "_liked_by": null, 
  "_user_tags": null, 
  "default_value": null, 
  "doc_type": "Delivery Note Item", 
  "docstatus": 0, 
  "doctype": "Property Setter", 
  "doctype_or_field": "DocField", 
  "field_name": "barcode", 
  "modified": "2019-07-17 17:43:13.936843", 
  "name": "Delivery Note Item-barcode-hidden", 
  "parent": null, 
  "parentfield": null, 
  "parenttype": null, 
  "property": "hidden", 
  "property_type": "Check", 
  "value": "0"
 }, 
 {
  "_assign": null, 
  "_comments": null, 
  "_liked_by": null, 
  "_user_tags": null, 
  "default_value": null, 
  "doc_type": "Purchase Receipt Item", 
  "docstatus": 0, 
  "doctype": "Property Setter", 
  "doctype_or_field": "DocField", 
  "field_name": "barcode", 
  "modified": "2019-07-17 17:43:14.045477", 
  "name": "Purchase Receipt Item-barcode-hidden", 
  "parent": null, 
  "parentfield": null, 
  "parenttype": null, 
  "property": "hidden", 
  "property_type": "Check", 
  "value": "0"
 }, 
 {
  "_assign": null, 
  "_comments": null, 
  "_liked_by": null, 
  "_user_tags": null, 
  "default_value": null, 
  "doc_type": "Sales Invoice Item", 
  "docstatus": 0, 
  "doctype": "Property Setter", 
  "doctype_or_field": "DocField", 
  "field_name": "barcode", 
  "modified": "2019-07-17 17:43:14.165287", 
  "name": "Sales Invoice Item-barcode-hidden", 
  "parent": null, 
  "parentfield": null, 
  "parenttype": null, 
  "property": "hidden", 
  "property_type": "Check", 
  "value": "0"
 }, 
 {
  "_assign": null, 
  "_comments": null, 
  "_liked_by": null, 
  "_user_tags": null, 
  "default_value": null, 
  "doc_type": "Clinical Procedure Item", 
  "docstatus": 0, 
  "doctype": "Property Setter", 
  "doctype_or_field": "DocField", 
  "field_name": "barcode", 
  "modified": "2019-07-17 17:43:14.289817", 
  "name": "Clinical Procedure Item-barcode-hidden", 
  "parent": null, 
  "parentfield": null, 
  "parenttype": null, 
  "property": "hidden", 
  "property_type": "Check", 
  "value": "0"
 }, 
 {
  "_assign": null, 
  "_comments": null, 
  "_liked_by": null, 
  "_user_tags": null, 
  "default_value": null, 
  "doc_type": "Stock Reconciliation Item", 
  "docstatus": 0, 
  "doctype": "Property Setter", 
  "doctype_or_field": "DocField", 
  "field_name": "barcode", 
  "modified": "2019-07-17 17:43:14.352882", 
  "name": "Stock Reconciliation Item-barcode-hidden", 
  "parent": null, 
  "parentfield": null, 
  "parenttype": null, 
  "property": "hidden", 
  "property_type": "Check", 
  "value": "0"
 }, 
 {
  "_assign": null, 
  "_comments": null, 
  "_liked_by": null, 
  "_user_tags": null, 
  "default_value": null, 
  "doc_type": "Delivery Note", 
  "docstatus": 0, 
  "doctype": "Property Setter", 
  "doctype_or_field": "DocField", 
  "field_name": "scan_barcode", 
  "modified": "2019-07-17 17:43:14.645630", 
  "name": "Delivery Note-scan_barcode-hidden", 
  "parent": null, 
  "parentfield": null, 
  "parenttype": null, 
  "property": "hidden", 
  "property_type": "Check", 
  "value": "0"
 }, 
 {
  "_assign": null, 
  "_comments": null, 
  "_liked_by": null, 
  "_user_tags": null, 
  "default_value": null, 
  "doc_type": "Sales Order", 
  "docstatus": 0, 
  "doctype": "Property Setter", 
  "doctype_or_field": "DocField", 
  "field_name": "scan_barcode", 
  "modified": "2019-07-17 17:43:15.091234", 
  "name": "Sales Order-scan_barcode-hidden", 
  "parent": null, 
  "parentfield": null, 
  "parenttype": null, 
  "property": "hidden", 
  "property_type": "Check", 
  "value": "0"
 }, 
 {
  "_assign": null, 
  "_comments": null, 
  "_liked_by": null, 
  "_user_tags": null, 
  "default_value": null, 
  "doc_type": "Purchase Invoice", 
  "docstatus": 0, 
  "doctype": "Property Setter", 
  "doctype_or_field": "DocField", 
  "field_name": "scan_barcode", 
  "modified": "2019-07-17 17:43:15.256544", 
  "name": "Purchase Invoice-scan_barcode-hidden", 
  "parent": null, 
  "parentfield": null, 
  "parenttype": null, 
  "property": "hidden", 
  "property_type": "Check", 
  "value": "0"
 }, 
 {
  "_assign": null, 
  "_comments": null, 
  "_liked_by": null, 
  "_user_tags": null, 
  "default_value": null, 
  "doc_type": "Sales Invoice", 
  "docstatus": 0, 
  "doctype": "Property Setter", 
  "doctype_or_field": "DocField", 
  "field_name": "scan_barcode", 
  "modified": "2019-07-17 17:43:15.437430", 
  "name": "Sales Invoice-scan_barcode-hidden", 
  "parent": null, 
  "parentfield": null, 
  "parenttype": null, 
  "property": "hidden", 
  "property_type": "Check", 
  "value": "0"
 }, 
 {
  "_assign": null, 
  "_comments": null, 
  "_liked_by": null, 
  "_user_tags": null, 
  "default_value": null, 
  "doc_type": "Material Request", 
  "docstatus": 0, 
  "doctype": "Property Setter", 
  "doctype_or_field": "DocField", 
  "field_name": "scan_barcode", 
  "modified": "2019-07-17 17:43:15.648445", 
  "name": "Material Request-scan_barcode-hidden", 
  "parent": null, 
  "parentfield": null, 
  "parenttype": null, 
  "property": "hidden", 
  "property_type": "Check", 
  "value": "0"
 }, 
 {
  "_assign": null, 
  "_comments": null, 
  "_liked_by": null, 
  "_user_tags": null, 
  "default_value": null, 
  "doc_type": "Stock Entry Detail", 
  "docstatus": 0, 
  "doctype": "Property Setter", 
  "doctype_or_field": "DocType", 
  "field_name": null, 
  "modified": "2020-01-24 12:12:38.820795", 
  "name": "Stock Entry Detail-read_only_onload", 
  "parent": null, 
  "parentfield": null, 
  "parenttype": null, 
  "property": "read_only_onload", 
  "property_type": "Check", 
  "value": null
 }, 
 {
  "_assign": null, 
  "_comments": null, 
  "_liked_by": null, 
  "_user_tags": null, 
  "default_value": null, 
  "doc_type": "Purchase Order", 
  "docstatus": 0, 
  "doctype": "Property Setter", 
  "doctype_or_field": "DocType", 
  "field_name": null, 
  "modified": "2020-01-24 15:26:40.058928", 
  "name": "Purchase Order-read_only_onload", 
  "parent": null, 
  "parentfield": null, 
  "parenttype": null, 
  "property": "read_only_onload", 
  "property_type": "Check", 
  "value": null
 }, 
 {
  "_assign": null, 
  "_comments": null, 
  "_liked_by": null, 
  "_user_tags": null, 
  "default_value": null, 
  "doc_type": "Purchase Order", 
  "docstatus": 0, 
  "doctype": "Property Setter", 
  "doctype_or_field": "DocField", 
  "field_name": "title", 
  "modified": "2020-01-24 15:26:40.119986", 
  "name": "Purchase Order-title-in_standard_filter", 
  "parent": null, 
  "parentfield": null, 
  "parenttype": null, 
  "property": "in_standard_filter", 
  "property_type": "Check", 
  "value": "1"
 }, 
 {
  "_assign": null, 
  "_comments": null, 
  "_liked_by": null, 
  "_user_tags": null, 
  "default_value": null, 
  "doc_type": "Item", 
  "docstatus": 0, 
  "doctype": "Property Setter", 
  "doctype_or_field": "DocType", 
  "field_name": null, 
  "modified": "2020-01-24 15:30:37.965601", 
  "name": "Item-read_only_onload", 
  "parent": null, 
  "parentfield": null, 
  "parenttype": null, 
  "property": "read_only_onload", 
  "property_type": "Check", 
  "value": null
 }
]