{
 "align_labels_right": 0, 
 "creation": "2019-06-22 15:32:26.168121", 
 "custom_format": 1, 
 "disabled": 0, 
 "doc_type": "BOM", 
 "docstatus": 0, 
 "doctype": "Print Format", 
 "font": "Default", 
 "html": "<div class=\"row\">\n     <div class=\"col-xs-12\">\n    <img src=\"/files/Papierdrachen_-_Liebe_zum_Schenken_400Px.jpg\" width=\"150px\">\n         </div>\n</div>\n\n<div class=\"print-heading\">\n    <h2>St\u00fcckliste<br><small>{{ doc.name }}</small></h2>\n</div>\n\n<div class=\"row\">\n     <div class=\"col-xs-2\">\n       <b>  Item Name </b>\n         </div>\n    <div class=\"col-xs-4\">\n        {{ doc.item_name }}\n    </div>\n    <div class=\"col-xs-3\">\n       <b> Date of Creation </b>\n         </div>\n      <div class=\"col-xs-3\">\n        {{ doc.creation }}\n    </div>\n    </div>\n<div class=\"row\">\n     <div class=\"col-xs-2\">\n       <b>  Item </b>\n         </div>\n    <div class=\"col-xs-4\">\n        {{ doc.item }}\n    </div>\n    </div>\n\n<div class=\"row\">\n     <div class=\"col-xs-12\">\n<table class=\"table\">\n\n<tr>\n    <th>\n        Image\n    </th>\n    <th>\n        Item Code\n    </th>\n    <th>\n        Item Name\n    </th>\n    <th>\n        Qty\n    </th>\n    <th>\n        UOM\n    </th>\n</tr>\n    {%- for row in doc.items -%}\n    <tr>\n        <td>\n            <img src=\"{{ row.image }}\" width=\"90px\">\n        </td>\n        <td>\n            {{ row.item_code }}\n        </td>\n        <td>\n             {{ row.item_name }}\n        </td>\n        <td>\n             {{ row.qty }}\n        </td>\n        <td>\n             {{ row.uom }}\n        </td>\n    </tr>\n{%- endfor -%}\n</table>\n         </div></div>", 
 "idx": 0, 
 "line_breaks": 0, 
 "modified": "2019-06-27 16:23:39.214567", 
 "modified_by": "Administrator", 
 "module": "Stephan", 
 "name": "BOM-neu-Stephan-pdf", 
 "owner": "Administrator", 
 "print_format_builder": 1, 
 "print_format_type": "Server", 
 "show_section_headings": 0, 
 "standard": "Yes"
}